2_fase_p2/waveform/tb_beqz_jalr.vcd
$date
	Mon Jun 29 16:08:08 2026
$end
$version
	Icarus Verilog
$end
$timescale
	1s
$end
$scope module tb_valentino_beqz_jalr $end
$scope module dut $end
$scope module pipe $end
$var wire 32 ! PCF [31:0] $end
$upscope $end
$upscope $end
$upscope $end
$scope module tb_valentino_beqz_jalr $end
$scope module dut $end
$scope module pipe $end
$var wire 32 " PCPlus4F [31:0] $end
$upscope $end
$upscope $end
$upscope $end
$scope module tb_valentino_beqz_jalr $end
$scope module dut $end
$scope module pipe $end
$var wire 32 # InstrF [31:0] $end
$upscope $end
$upscope $end
$upscope $end
$scope module tb_valentino_beqz_jalr $end
$scope module dut $end
$scope module pipe $end
$var reg 32 $ InstrD [31:0] $end
$upscope $end
$upscope $end
$upscope $end
$scope module tb_valentino_beqz_jalr $end
$scope module dut $end
$scope module pipe $end
$scope module ifs $end
$var wire 1 % IsCompressedF $end
$upscope $end
$upscope $end
$upscope $end
$upscope $end
$scope module tb_valentino_beqz_jalr $end
$scope module dut $end
$scope module pipe $end
$var wire 2 & PCSrcE [1:0] $end
$upscope $end
$upscope $end
$upscope $end
$scope module tb_valentino_beqz_jalr $end
$scope module dut $end
$scope module pipe $end
$var wire 32 ' PCTargetE [31:0] $end
$upscope $end
$upscope $end
$upscope $end
$scope module tb_valentino_beqz_jalr $end
$scope module dut $end
$scope module pipe $end
$var wire 32 ( PCJalrE [31:0] $end
$upscope $end
$upscope $end
$upscope $end
$scope module tb_valentino_beqz_jalr $end
$scope module dut $end
$scope module pipe $end
$scope module exs $end
$var reg 1 ) branchCond $end
$upscope $end
$upscope $end
$upscope $end
$upscope $end
$scope module tb_valentino_beqz_jalr $end
$scope module dut $end
$scope module pipe $end
$var wire 1 * FlushD $end
$upscope $end
$upscope $end
$upscope $end
$scope module tb_valentino_beqz_jalr $end
$scope module dut $end
$scope module pipe $end
$var wire 1 + FlushE $end
$upscope $end
$upscope $end
$upscope $end
$scope module tb_valentino_beqz_jalr $end
$scope module dut $end
$scope module pipe $end
$scope module ids $end
$scope module rf $end
$var reg 32 , \rf[1] [31:0] $end
$upscope $end
$upscope $end
$upscope $end
$upscope $end
$upscope $end
$scope module tb_valentino_beqz_jalr $end
$scope module dut $end
$scope module pipe $end
$scope module ids $end
$scope module rf $end
$var reg 32 - \rf[8] [31:0] $end
$upscope $end
$upscope $end
$upscope $end
$upscope $end
$upscope $end
$scope module tb_valentino_beqz_jalr $end
$scope module dut $end
$scope module pipe $end
$scope module ids $end
$scope module rf $end
$var reg 32 . \rf[9] [31:0] $end
$upscope $end
$upscope $end
$upscope $end
$upscope $end
$upscope $end
$scope module tb_valentino_beqz_jalr $end
$scope module dut $end
$scope module pipe $end
$scope module ids $end
$scope module rf $end
$var reg 32 / \rf[10] [31:0] $end
$upscope $end
$upscope $end
$upscope $end
$upscope $end
$upscope $end
$scope module tb_valentino_beqz_jalr $end
$scope module dut $end
$scope module pipe $end
$scope module ids $end
$scope module rf $end
$var reg 32 0 \rf[11] [31:0] $end
$upscope $end
$upscope $end
$upscope $end
$upscope $end
$upscope $end
$scope module tb_valentino_beqz_jalr $end
$scope module dut $end
$scope module pipe $end
$scope module ids $end
$scope module rf $end
$var reg 32 1 \rf[12] [31:0] $end
$upscope $end
$upscope $end
$upscope $end
$upscope $end
$upscope $end
$enddefinitions $end
#0
$dumpvars
b0 1
b0 0
b0 /
b0 .
b0 -
b0 ,
0+
0*
1)
b0 (
b0 '
b0 &
0%
b0 $
b10010010011 #
b100 "
b0 !
$end
#25
b10100000000010000010011 #
b1000 "
b10010010011 $
b100 !
#35
1%
b1001000001001100011 #
b1010 "
b1000 !
b10100000000010000010011 $
#45
b101000000010000010011 #
b100 (
b1100 "
b1001 '
b1001000001001100011 $
b1010 !
#55
1+
b1100000000000010100010011 #
1*
b1 &
0%
b0 (
b10000 "
b1100 !
b101000000010000010011 $
b1100 '
#60
b0 .
#65
b0 (
1)
0+
0*
b0 &
b0 '
b0 $
#70
b101 -
#75
1%
b1010000000011100111 #
b10010 "
b10000 !
b1100000000000010100010011 $
#85
b101011000010110010011 #
b11000 (
b10100 "
b100100 '
b1010000000011100111 $
b10010 !
#95
0)
b1100011 #
0%
b11000 (
1+
b11000 "
1*
b10 &
b10100 !
b101011000010110010011 $
b10000 '
#105
b0 (
1)
0+
0*
b100110100000000011000010011 #
b0 &
b11100 "
b0 '
b0 $
b11000 !
#110
b11000 /
#115
b1100011 #
b100000 "
b11100 !
b100110100000000011000010011 $
#120
b10010 ,
#125
b1001100 (
x%
bx #
b100xx0 "
b1100101 '
b1100011 $
b100000 !
#135
1+
1*
b1 &
b0 (
bx "
b100xx0 !
bx $
b11100 '
#145
0+
0*
b0 &
0%
b1100011 #
b100000 "
b0 '
b0 $
b11100 !
#150
b1001101 1
#155
x%
bx #
b100xx0 "
b100000 !
b1100011 $
#165
1+
1*
b1 &
bx "
b11100 '
bx $
b100xx0 !
#175
0+
0*
b0 &
0%
b1100011 #
b100000 "
b11100 !
b0 $
b0 '
#185
x%
bx #
b100xx0 "
b1100011 $
b100000 !
#195
1+
1*
b1 &
bx "
b100xx0 !
bx $
b11100 '
#205
0+
0*
b0 &
0%
b1100011 #
b100000 "
b0 '
b0 $
b11100 !
#215
x%
bx #
b100xx0 "
b100000 !
b1100011 $
#225
1+
1*
b1 &
bx "
b11100 '
bx $
b100xx0 !
#235
0+
0*
b0 &
0%
b1100011 #
b100000 "
b11100 !
b0 $
b0 '
#245
x%
bx #
b100xx0 "
b1100011 $
b100000 !
#255
1+
1*
b1 &
bx "
b100xx0 !
bx $
b11100 '
#265
0+
0*
b0 &
0%
b1100011 #
b100000 "
b0 '
b0 $
b11100 !
#275
x%
bx #
b100xx0 "
b100000 !
b1100011 $
#285
1+
1*
b1 &
bx "
b11100 '
bx $
b100xx0 !
#295
0+
0*
b0 &
0%
b1100011 #
b100000 "
b11100 !
b0 $
b0 '
#305
x%
bx #
b100xx0 "
b1100011 $
b100000 !
#315
1+
1*
b1 &
bx "
b100xx0 !
bx $
b11100 '
#325
0+
0*
b0 &
0%
b1100011 #
b100000 "
b0 '
b0 $
b11100 !
#335
x%
bx #
b100xx0 "
b100000 !
b1100011 $
#345
1+
1*
b1 &
bx "
b11100 '
bx $
b100xx0 !
#355
0+
0*
b0 &
0%
b1100011 #
b100000 "
b11100 !
b0 $
b0 '
#365
x%
bx #
b100xx0 "
b1100011 $
b100000 !
#375
1+
1*
b1 &
bx "
b100xx0 !
bx $
b11100 '
#385
0+
0*
b0 &
0%
b1100011 #
b100000 "
b0 '
b0 $
b11100 !
#395
x%
bx #
b100xx0 "
b100000 !
b1100011 $
#405
1+
1*
b1 &
bx "
b11100 '
bx $
b100xx0 !
#415
0+
0*
b0 &
0%
b1100011 #
b100000 "
b11100 !
b0 $
b0 '
#425
x%
bx #
b100xx0 "
b1100011 $
b100000 !
#435
1+
1*
b1 &
bx "
b100xx0 !
bx $
b11100 '
#445
0+
0*
b0 &
0%
b1100011 #
b100000 "
b0 '
b0 $
b11100 !
#455
x%
bx #
b100xx0 "
b100000 !
b1100011 $
#465
1+
1*
b1 &
bx "
b11100 '
bx $
b100xx0 !
#475
0+
0*
b0 &
0%
b1100011 #
b100000 "
b11100 !
b0 $
b0 '
#485
x%
bx #
b100xx0 "
b1100011 $
b100000 !
#495
1+
1*
b1 &
bx "
b100xx0 !
bx $
b11100 '
#505
0+
0*
b0 &
0%
b1100011 #
b100000 "
b0 '
b0 $
b11100 !
#515
x%
bx #
b100xx0 "
b100000 !
b1100011 $
#525
1+
1*
b1 &
bx "
b11100 '
bx $
b100xx0 !
#535
0+
0*
b0 &
0%
b1100011 #
b100000 "
b11100 !
b0 $
b0 '
#545
x%
bx #
b100xx0 "
b1100011 $
b100000 !
#555
1+
1*
b1 &
bx "
b100xx0 !
bx $
b11100 '
#565
0+
0*
b0 &
0%
b1100011 #
b100000 "
b0 '
b0 $
b11100 !
#575
x%
bx #
b100xx0 "
b100000 !
b1100011 $
#585
1+
1*
b1 &
bx "
b11100 '
bx $
b100xx0 !
#595
0+
0*
b0 &
0%
b1100011 #
b100000 "
b11100 !
b0 $
b0 '
#605
x%
bx #
b100xx0 "
b1100011 $
b100000 !
#615
1+
1*
b1 &
bx "
b100xx0 !
bx $
b11100 '
#625
0+
0*
b0 &
0%
b1100011 #
b100000 "
b0 '
b0 $
b11100 !
#635
x%
bx #
b100xx0 "
b100000 !
b1100011 $
#645
1+
1*
b1 &
bx "
b11100 '
bx $
b100xx0 !
#655
0+
0*
b0 &
0%
b1100011 #
b100000 "
b11100 !
b0 $
b0 '
#665
x%
bx #
b100xx0 "
b1100011 $
b100000 !
#675
1+
1*
b1 &
bx "
b100xx0 !
bx $
b11100 '
#685
0+
0*
b0 &
0%
b1100011 #
b100000 "
b0 '
b0 $
b11100 !
#695
x%
bx #
b100xx0 "
b100000 !
b1100011 $
#705
1+
1*
b1 &
bx "
b11100 '
bx $
b100xx0 !
#715
0+
0*
b0 &
0%
b1100011 #
b100000 "
b11100 !
b0 $
b0 '
#725
x%
bx #
b100xx0 "
b1100011 $
b100000 !
#735
1+
1*
b1 &
bx "
b100xx0 !
bx $
b11100 '
#745
0+
0*
b0 &
0%
b1100011 #
b100000 "
b0 '
b0 $
b11100 !
#755
x%
bx #
b100xx0 "
b100000 !
b1100011 $
#765
1+
1*
b1 &
bx "
b11100 '
bx $
b100xx0 !
#775
0+
0*
b0 &
0%
b1100011 #
b100000 "
b11100 !
b0 $
b0 '
#785
x%
bx #
b100xx0 "
b1100011 $
b100000 !
#795
1+
1*
b1 &
bx "
b100xx0 !
bx $
b11100 '
#805
0+
0*
b0 &
0%
b1100011 #
b100000 "
b0 '
b0 $
b11100 !
#815
x%
bx #
b100xx0 "
b100000 !
b1100011 $
#825
1+
1*
b1 &
bx "
b11100 '
bx $
b100xx0 !
#835
0+
0*
b0 &
0%
b1100011 #
b100000 "
b11100 !
b0 $
b0 '
#845
x%
bx #
b100xx0 "
b1100011 $
b100000 !
#855
1+
1*
b1 &
bx "
b100xx0 !
bx $
b11100 '
#865
0+
0*
b0 &
0%
b1100011 #
b100000 "
b0 '
b0 $
b11100 !
#875
x%
bx #
b100xx0 "
b100000 !
b1100011 $
#885
1+
1*
b1 &
bx "
b11100 '
bx $
b100xx0 !
#895
0+
0*
b0 &
0%
b1100011 #
b100000 "
b11100 !
b0 $
b0 '
#905
x%
bx #
b100xx0 "
b1100011 $
b100000 !
#915
1+
1*
b1 &
bx "
b100xx0 !
bx $
b11100 '
#925
0+
0*
b0 &
0%
b1100011 #
b100000 "
b0 '
b0 $
b11100 !
#935
x%
bx #
b100xx0 "
b100000 !
b1100011 $
#945
1+
1*
b1 &
bx "
b11100 '
bx $
b100xx0 !
#955
0+
0*
b0 &
0%
b1100011 #
b100000 "
b11100 !
b0 $
b0 '
#965
x%
bx #
b100xx0 "
b1100011 $
b100000 !
#975
1+
1*
b1 &
bx "
b100xx0 !
bx $
b11100 '
#985
0+
0*
b0 &
0%
b1100011 #
b100000 "
b0 '
b0 $
b11100 !
#995
x%
bx #
b100xx0 "
b100000 !
b1100011 $
#1005
1+
1*
b1 &
bx "
b11100 '
bx $
b100xx0 !
#1015
0+
0*
b0 &
0%
b1100011 #
b100000 "
b11100 !
b0 $
b0 '
#1025
x%
bx #
b100xx0 "
b1100011 $
b100000 !
#1035
1+
1*
b1 &
bx "
b100xx0 !
bx $
b11100 '
#1045
0+
0*
b0 &
0%
b1100011 #
b100000 "
b0 '
b0 $
b11100 !
#1055
x%
bx #
b100xx0 "
b100000 !
b1100011 $
#1065
1+
1*
b1 &
bx "
b11100 '
bx $
b100xx0 !
#1075
0+
0*
b0 &
0%
b1100011 #
b100000 "
b11100 !
b0 $
b0 '
#1085
x%
bx #
b100xx0 "
b1100011 $
b100000 !
#1095
1+
1*
b1 &
bx "
b100xx0 !
bx $
b11100 '
#1105
0+
0*
b0 &
0%
b1100011 #
b100000 "
b0 '
b0 $
b11100 !
#1115
x%
bx #
b100xx0 "
b100000 !
b1100011 $
#1125
1+
1*
b1 &
bx "
b11100 '
bx $
b100xx0 !
#1135
0+
0*
b0 &
0%
b1100011 #
b100000 "
b11100 !
b0 $
b0 '
#1145
x%
bx #
b100xx0 "
b1100011 $
b100000 !
#1155
1+
1*
b1 &
bx "
b100xx0 !
bx $
b11100 '
#1165
0+
0*
b0 &
0%
b1100011 #
b100000 "
b0 '
b0 $
b11100 !
#1175
x%
bx #
b100xx0 "
b100000 !
b1100011 $
#1185
1+
1*
b1 &
bx "
b11100 '
bx $
b100xx0 !
#1195
0+
0*
b0 &
0%
b1100011 #
b100000 "
b11100 !
b0 $
b0 '
