2_fase_p2/waveform/tb_test_stalling.vcd
$date
	Thu Jun 25 14:57:46 2026
$end
$version
	Icarus Verilog
$end
$timescale
	1s
$end
$scope module tb_test_stalling $end
$scope module dut $end
$scope module pipe $end
$var wire 32 ! PCF [31:0] $end
$upscope $end
$upscope $end
$upscope $end
$scope module tb_test_stalling $end
$scope module dut $end
$scope module pipe $end
$var reg 32 " InstrD [31:0] $end
$upscope $end
$upscope $end
$upscope $end
$scope module tb_test_stalling $end
$scope module dut $end
$scope module pipe $end
$var wire 1 # StallF $end
$upscope $end
$upscope $end
$upscope $end
$scope module tb_test_stalling $end
$scope module dut $end
$scope module pipe $end
$var wire 1 $ StallD $end
$upscope $end
$upscope $end
$upscope $end
$scope module tb_test_stalling $end
$scope module dut $end
$scope module pipe $end
$var wire 1 % FlushE $end
$upscope $end
$upscope $end
$upscope $end
$enddefinitions $end
$comment Show the parameter values. $end
$dumpall
$end
#0
$dumpvars
0%
0$
0#
b0 "
b0 !
$end
#25
b10000000000000010010011 "
b100 !
#35
b1000 !
b100000010000000100011 "
#45
b10000100000011 "
b1100 !
#55
1%
1#
1$
b10000 !
b1000010000001100010011 "
#65
0%
0#
0$
#75
b10100 !
b100100000000000110010011 "
#85
b1100011000001110010011 "
b11000 !
#95
b11100 !
b1100011 "
#105
1%
bx "
b0xxxxx0 !
#115
0%
b11000 !
b0 "
#125
b1100011 "
b11100 !
#135
1%
b0xxxxx0 !
bx "
#145
0%
b0 "
b11000 !
#155
b11100 !
b1100011 "
#165
1%
bx "
b0xxxxx0 !
#175
0%
b11000 !
b0 "
#185
b1100011 "
b11100 !
#195
1%
b0xxxxx0 !
bx "
#205
0%
b0 "
b11000 !
#215
b11100 !
b1100011 "
#225
1%
bx "
b0xxxxx0 !
#235
0%
b11000 !
b0 "
#245
b1100011 "
b11100 !
#255
1%
b0xxxxx0 !
bx "
#265
0%
b0 "
b11000 !
#275
b11100 !
b1100011 "
#285
1%
bx "
b0xxxxx0 !
#295
0%
b11000 !
b0 "
#305
b1100011 "
b11100 !
#315
1%
b0xxxxx0 !
bx "
#325
0%
b0 "
b11000 !
#335
b11100 !
b1100011 "
#345
1%
bx "
b0xxxxx0 !
#355
0%
b11000 !
b0 "
#365
b1100011 "
b11100 !
#375
1%
b0xxxxx0 !
bx "
#385
0%
b0 "
b11000 !
#395
b11100 !
b1100011 "
#405
1%
bx "
b0xxxxx0 !
#415
0%
b11000 !
b0 "
#425
b1100011 "
b11100 !
#435
1%
b0xxxxx0 !
bx "
#445
0%
b0 "
b11000 !
#455
b11100 !
b1100011 "
#465
1%
bx "
b0xxxxx0 !
#475
0%
b11000 !
b0 "
#485
b1100011 "
b11100 !
#495
1%
b0xxxxx0 !
bx "
#505
0%
b0 "
b11000 !
#515
b11100 !
b1100011 "
#525
1%
bx "
b0xxxxx0 !
#535
0%
b11000 !
b0 "
#545
b1100011 "
b11100 !
#555
1%
b0xxxxx0 !
bx "
#565
0%
b0 "
b11000 !
#575
b11100 !
b1100011 "
#585
1%
bx "
b0xxxxx0 !
#595
0%
b11000 !
b0 "
#605
b1100011 "
b11100 !
#615
1%
b0xxxxx0 !
bx "
#625
0%
b0 "
b11000 !
#635
b11100 !
b1100011 "
#645
1%
bx "
b0xxxxx0 !
#655
0%
b11000 !
b0 "
#665
b1100011 "
b11100 !
#675
1%
b0xxxxx0 !
bx "
#685
0%
b0 "
b11000 !
#695
b11100 !
b1100011 "
#705
1%
bx "
b0xxxxx0 !
#715
0%
b11000 !
b0 "
#725
b1100011 "
b11100 !
#735
1%
b0xxxxx0 !
bx "
#745
0%
b0 "
b11000 !
#755
b11100 !
b1100011 "
#765
1%
bx "
b0xxxxx0 !
#775
0%
b11000 !
b0 "
#785
b1100011 "
b11100 !
#795
1%
b0xxxxx0 !
bx "
#805
0%
b0 "
b11000 !
#815
b11100 !
b1100011 "
#825
1%
bx "
b0xxxxx0 !
#835
0%
b11000 !
b0 "
#845
b1100011 "
b11100 !
#855
1%
b0xxxxx0 !
bx "
#865
0%
b0 "
b11000 !
#875
b11100 !
b1100011 "
#885
1%
bx "
b0xxxxx0 !
#895
0%
b11000 !
b0 "
#905
b1100011 "
b11100 !
#915
1%
b0xxxxx0 !
bx "
#925
0%
b0 "
b11000 !
#935
b11100 !
b1100011 "
#945
1%
bx "
b0xxxxx0 !
#955
0%
b11000 !
b0 "
#965
b1100011 "
b11100 !
#975
1%
b0xxxxx0 !
bx "
#985
0%
b0 "
b11000 !
#995
b11100 !
b1100011 "
#1005
1%
bx "
b0xxxxx0 !
#1015
0%
b11000 !
b0 "
#1025
b1100011 "
b11100 !
#1035
1%
b0xxxxx0 !
bx "
#1045
0%
b0 "
b11000 !
#1055
b11100 !
b1100011 "
#1065
1%
bx "
b0xxxxx0 !
#1075
0%
b11000 !
b0 "
#1085
b1100011 "
b11100 !
#1095
1%
b0xxxxx0 !
bx "
#1105
0%
b0 "
b11000 !
#1115
b11100 !
b1100011 "
#1125
1%
bx "
b0xxxxx0 !
#1135
0%
b11000 !
b0 "
#1145
b1100011 "
b11100 !
#1155
1%
b0xxxxx0 !
bx "
#1165
0%
b0 "
b11000 !
#1175
b11100 !
b1100011 "
#1185
1%
bx "
b0xxxxx0 !
#1195
0%
b11000 !
b0 "
#1205
b1100011 "
b11100 !
#1215
1%
b0xxxxx0 !
bx "
#1225
0%
b0 "
b11000 !
#1235
b11100 !
b1100011 "
#1245
1%
bx "
b0xxxxx0 !
#1255
0%
b11000 !
b0 "
#1265
b1100011 "
b11100 !
#1275
1%
b0xxxxx0 !
bx "
#1285
0%
b0 "
b11000 !
#1295
b11100 !
b1100011 "
#1305
1%
bx "
b0xxxxx0 !
#1315
0%
b11000 !
b0 "
#1325
b1100011 "
b11100 !
#1335
1%
b0xxxxx0 !
bx "
#1345
0%
b0 "
b11000 !
#1355
b11100 !
b1100011 "
#1365
1%
bx "
b0xxxxx0 !
#1375
0%
b11000 !
b0 "
#1385
b1100011 "
b11100 !
#1395
1%
b0xxxxx0 !
bx "
#1405
0%
b0 "
b11000 !
#1415
b11100 !
b1100011 "
#1425
1%
bx "
b0xxxxx0 !
#1435
0%
b11000 !
b0 "
#1445
b1100011 "
b11100 !
#1455
1%
b0xxxxx0 !
bx "
#1465
0%
b0 "
b11000 !
#1475
b11100 !
b1100011 "
#1485
1%
bx "
b0xxxxx0 !
#1495
0%
b11000 !
b0 "
#1505
b1100011 "
b11100 !
#1515
1%
b0xxxxx0 !
bx "
#1525
0%
b0 "
b11000 !
#1535
b11100 !
b1100011 "
#1545
1%
bx "
b0xxxxx0 !
#1555
0%
b11000 !
b0 "
#1565
b1100011 "
b11100 !
#1575
1%
b0xxxxx0 !
bx "
#1585
0%
b0 "
b11000 !
#1595
b11100 !
b1100011 "
#1605
1%
bx "
b0xxxxx0 !
#1615
0%
b11000 !
b0 "
#1625
b1100011 "
b11100 !
#1635
1%
b0xxxxx0 !
bx "
#1645
0%
b0 "
b11000 !
#1655
b11100 !
b1100011 "
#1665
1%
bx "
b0xxxxx0 !
#1675
0%
b11000 !
b0 "
#1685
b1100011 "
b11100 !
#1695
1%
b0xxxxx0 !
bx "
#1705
0%
b0 "
b11000 !
#1715
b11100 !
b1100011 "
#1725
1%
bx "
b0xxxxx0 !
#1735
0%
b11000 !
b0 "
#1745
b1100011 "
b11100 !
#1755
1%
b0xxxxx0 !
bx "
#1765
0%
b0 "
b11000 !
#1775
b11100 !
b1100011 "
#1785
1%
bx "
b0xxxxx0 !
#1795
0%
b11000 !
b0 "
#1805
b1100011 "
b11100 !
#1815
1%
b0xxxxx0 !
bx "
#1825
0%
b0 "
b11000 !
#1835
b11100 !
b1100011 "
#1845
1%
bx "
b0xxxxx0 !
#1855
0%
b11000 !
b0 "
#1865
b1100011 "
b11100 !
#1875
1%
b0xxxxx0 !
bx "
#1885
0%
b0 "
b11000 !
#1895
b11100 !
b1100011 "
#1905
1%
bx "
b0xxxxx0 !
#1915
0%
b11000 !
b0 "
#1925
b1100011 "
b11100 !
#1935
1%
b0xxxxx0 !
bx "
#1945
0%
b0 "
b11000 !
#1955
b11100 !
b1100011 "
#1965
1%
bx "
b0xxxxx0 !
#1975
0%
b11000 !
b0 "
#1985
b1100011 "
b11100 !
#1995
1%
b0xxxxx0 !
bx "
#2005
0%
b0 "
b11000 !
#2015
b11100 !
b1100011 "
#2025
1%
bx "
b0xxxxx0 !
#2035
0%
b11000 !
b0 "
#2045
b1100011 "
b11100 !
#2055
1%
b0xxxxx0 !
bx "
#2065
0%
b0 "
b11000 !
#2075
b11100 !
b1100011 "
#2085
1%
bx "
b0xxxxx0 !
#2095
0%
b11000 !
b0 "
#2105
b1100011 "
b11100 !
#2115
1%
b0xxxxx0 !
bx "
#2125
0%
b0 "
b11000 !
#2135
b11100 !
b1100011 "
#2145
1%
bx "
b0xxxxx0 !
#2155
0%
b11000 !
b0 "
#2165
b1100011 "
b11100 !
#2175
1%
b0xxxxx0 !
bx "
#2185
0%
b0 "
b11000 !
#2195
b11100 !
b1100011 "
#2205
1%
bx "
b0xxxxx0 !
#2215
0%
b11000 !
b0 "
#2225
b1100011 "
b11100 !
#2235
1%
b0xxxxx0 !
bx "
#2245
0%
b0 "
b11000 !
#2255
b11100 !
b1100011 "
#2265
1%
bx "
b0xxxxx0 !
#2275
0%
b11000 !
b0 "
#2285
b1100011 "
b11100 !
#2295
1%
b0xxxxx0 !
bx "
#2305
0%
b0 "
b11000 !
#2315
b11100 !
b1100011 "
#2325
1%
bx "
b0xxxxx0 !
#2335
0%
b11000 !
b0 "
#2345
b1100011 "
b11100 !
#2355
1%
b0xxxxx0 !
bx "
#2365
0%
b0 "
b11000 !
#2375
b11100 !
b1100011 "
#2385
1%
bx "
b0xxxxx0 !
#2395
0%
b11000 !
b0 "
#2405
b1100011 "
b11100 !
#2415
1%
b0xxxxx0 !
bx "
#2425
0%
b0 "
b11000 !
#2435
b11100 !
b1100011 "
#2445
1%
bx "
b0xxxxx0 !
#2455
0%
b11000 !
b0 "
#2465
b1100011 "
b11100 !
#2475
1%
b0xxxxx0 !
bx "
#2485
0%
b0 "
b11000 !
#2495
b11100 !
b1100011 "
#2505
1%
bx "
b0xxxxx0 !
#2515
0%
b11000 !
b0 "
#2525
b1100011 "
b11100 !
#2535
1%
b0xxxxx0 !
bx "
#2545
0%
b0 "
b11000 !
#2555
b11100 !
b1100011 "
#2565
1%
bx "
b0xxxxx0 !
#2575
0%
b11000 !
b0 "
#2585
b1100011 "
b11100 !
#2595
1%
b0xxxxx0 !
bx "
#2605
0%
b0 "
b11000 !
#2615
b11100 !
b1100011 "
#2625
1%
bx "
b0xxxxx0 !
#2635
0%
b11000 !
b0 "
#2645
b1100011 "
b11100 !
#2655
1%
b0xxxxx0 !
bx "
#2665
0%
b0 "
b11000 !
#2675
b11100 !
b1100011 "
#2685
1%
bx "
b0xxxxx0 !
#2695
0%
b11000 !
b0 "
#2705
b1100011 "
b11100 !
#2715
1%
b0xxxxx0 !
bx "
#2725
0%
b0 "
b11000 !
#2735
b11100 !
b1100011 "
#2745
1%
bx "
b0xxxxx0 !
#2755
0%
b11000 !
b0 "
#2765
b1100011 "
b11100 !
#2775
1%
b0xxxxx0 !
bx "
#2785
0%
b0 "
b11000 !
#2795
b11100 !
b1100011 "
#2805
1%
bx "
b0xxxxx0 !
#2815
0%
b11000 !
b0 "
#2825
b1100011 "
b11100 !
#2835
1%
b0xxxxx0 !
bx "
#2845
0%
b0 "
b11000 !
#2855
b11100 !
b1100011 "
#2865
1%
bx "
b0xxxxx0 !
#2875
0%
b11000 !
b0 "
#2885
b1100011 "
b11100 !
#2895
1%
b0xxxxx0 !
bx "
#2905
0%
b0 "
b11000 !
#2915
b11100 !
b1100011 "
#2925
1%
bx "
b0xxxxx0 !
#2935
0%
b11000 !
b0 "
#2945
b1100011 "
b11100 !
#2955
1%
b0xxxxx0 !
bx "
#2965
0%
b0 "
b11000 !
#2975
b11100 !
b1100011 "
#2985
1%
bx "
b0xxxxx0 !
#2995
0%
b11000 !
b0 "
