2_fase_p2/waveform/tb_test_forwarding.vcd
$date
	Thu Jun 25 14:57:44 2026
$end
$version
	Icarus Verilog
$end
$timescale
	1s
$end
$scope module tb_test_forwarding $end
$scope module dut $end
$scope module pipe $end
$var wire 32 ! PCF [31:0] $end
$upscope $end
$upscope $end
$upscope $end
$scope module tb_test_forwarding $end
$scope module dut $end
$scope module pipe $end
$var reg 32 " InstrD [31:0] $end
$upscope $end
$upscope $end
$upscope $end
$scope module tb_test_forwarding $end
$scope module dut $end
$scope module pipe $end
$var wire 2 # ForwardAE [1:0] $end
$upscope $end
$upscope $end
$upscope $end
$scope module tb_test_forwarding $end
$scope module dut $end
$scope module pipe $end
$var wire 2 $ ForwardBE [1:0] $end
$upscope $end
$upscope $end
$upscope $end
$scope module tb_test_forwarding $end
$scope module dut $end
$scope module pipe $end
$var wire 32 % ALUResultE [31:0] $end
$upscope $end
$upscope $end
$upscope $end
$enddefinitions $end
$comment Show the parameter values. $end
$dumpall
$end
#0
$dumpvars
b0 %
b0 $
b0 #
b0 "
b0 !
$end
#25
b100000000000010010011 "
b100 !
#35
b1 %
b1000 !
b1000000000000100010011 "
#45
b10 %
b1000001000000110110011 "
b1100 !
#55
b10 $
b1 #
b11 %
b10000 !
b100011000001000110011 "
#65
b10 #
b100 %
b0 $
b1100100000001010110011 "
b10100 !
#75
b1 $
b111 %
b11000 !
b10000101000001100110011 "
#85
b1011 %
b10100110000010100110011 "
b11100 !
#95
b10010 %
b100000 !
b1100011 "
#105
b0 $
b0 #
b0 %
bx "
b100xx0 !
#115
b11100 !
b0 "
#125
b1100011 "
b100000 !
#135
b100xx0 !
bx "
#145
b0 "
b11100 !
#155
b100000 !
b1100011 "
#165
bx "
b100xx0 !
#175
b11100 !
b0 "
#185
b1100011 "
b100000 !
#195
b100xx0 !
bx "
#205
b0 "
b11100 !
#215
b100000 !
b1100011 "
#225
bx "
b100xx0 !
#235
b11100 !
b0 "
#245
b1100011 "
b100000 !
#255
b100xx0 !
bx "
#265
b0 "
b11100 !
#275
b100000 !
b1100011 "
#285
bx "
b100xx0 !
#295
b11100 !
b0 "
#305
b1100011 "
b100000 !
#315
b100xx0 !
bx "
#325
b0 "
b11100 !
#335
b100000 !
b1100011 "
#345
bx "
b100xx0 !
#355
b11100 !
b0 "
#365
b1100011 "
b100000 !
#375
b100xx0 !
bx "
#385
b0 "
b11100 !
#395
b100000 !
b1100011 "
#405
bx "
b100xx0 !
#415
b11100 !
b0 "
#425
b1100011 "
b100000 !
#435
b100xx0 !
bx "
#445
b0 "
b11100 !
#455
b100000 !
b1100011 "
#465
bx "
b100xx0 !
#475
b11100 !
b0 "
#485
b1100011 "
b100000 !
#495
b100xx0 !
bx "
#505
b0 "
b11100 !
#515
b100000 !
b1100011 "
#525
bx "
b100xx0 !
#535
b11100 !
b0 "
#545
b1100011 "
b100000 !
#555
b100xx0 !
bx "
#565
b0 "
b11100 !
#575
b100000 !
b1100011 "
#585
bx "
b100xx0 !
#595
b11100 !
b0 "
#605
b1100011 "
b100000 !
#615
b100xx0 !
bx "
#625
b0 "
b11100 !
#635
b100000 !
b1100011 "
#645
bx "
b100xx0 !
#655
b11100 !
b0 "
#665
b1100011 "
b100000 !
#675
b100xx0 !
bx "
#685
b0 "
b11100 !
#695
b100000 !
b1100011 "
#705
bx "
b100xx0 !
#715
b11100 !
b0 "
#725
b1100011 "
b100000 !
#735
b100xx0 !
bx "
#745
b0 "
b11100 !
#755
b100000 !
b1100011 "
#765
bx "
b100xx0 !
#775
b11100 !
b0 "
#785
b1100011 "
b100000 !
#795
b100xx0 !
bx "
#805
b0 "
b11100 !
#815
b100000 !
b1100011 "
#825
bx "
b100xx0 !
#835
b11100 !
b0 "
#845
b1100011 "
b100000 !
#855
b100xx0 !
bx "
#865
b0 "
b11100 !
#875
b100000 !
b1100011 "
#885
bx "
b100xx0 !
#895
b11100 !
b0 "
#905
b1100011 "
b100000 !
#915
b100xx0 !
bx "
#925
b0 "
b11100 !
#935
b100000 !
b1100011 "
#945
bx "
b100xx0 !
#955
b11100 !
b0 "
#965
b1100011 "
b100000 !
#975
b100xx0 !
bx "
#985
b0 "
b11100 !
#995
b100000 !
b1100011 "
#1005
bx "
b100xx0 !
#1015
b11100 !
b0 "
#1025
b1100011 "
b100000 !
#1035
b100xx0 !
bx "
#1045
b0 "
b11100 !
#1055
b100000 !
b1100011 "
#1065
bx "
b100xx0 !
#1075
b11100 !
b0 "
#1085
b1100011 "
b100000 !
#1095
b100xx0 !
bx "
#1105
b0 "
b11100 !
#1115
b100000 !
b1100011 "
#1125
bx "
b100xx0 !
#1135
b11100 !
b0 "
#1145
b1100011 "
b100000 !
#1155
b100xx0 !
bx "
#1165
b0 "
b11100 !
#1175
b100000 !
b1100011 "
#1185
bx "
b100xx0 !
#1195
b11100 !
b0 "
#1205
b1100011 "
b100000 !
#1215
b100xx0 !
bx "
#1225
b0 "
b11100 !
#1235
b100000 !
b1100011 "
#1245
bx "
b100xx0 !
#1255
b11100 !
b0 "
#1265
b1100011 "
b100000 !
#1275
b100xx0 !
bx "
#1285
b0 "
b11100 !
#1295
b100000 !
b1100011 "
#1305
bx "
b100xx0 !
#1315
b11100 !
b0 "
#1325
b1100011 "
b100000 !
#1335
b100xx0 !
bx "
#1345
b0 "
b11100 !
#1355
b100000 !
b1100011 "
#1365
bx "
b100xx0 !
#1375
b11100 !
b0 "
#1385
b1100011 "
b100000 !
#1395
b100xx0 !
bx "
#1405
b0 "
b11100 !
#1415
b100000 !
b1100011 "
#1425
bx "
b100xx0 !
#1435
b11100 !
b0 "
#1445
b1100011 "
b100000 !
#1455
b100xx0 !
bx "
#1465
b0 "
b11100 !
#1475
b100000 !
b1100011 "
#1485
bx "
b100xx0 !
#1495
b11100 !
b0 "
#1505
b1100011 "
b100000 !
#1515
b100xx0 !
bx "
#1525
b0 "
b11100 !
#1535
b100000 !
b1100011 "
#1545
bx "
b100xx0 !
#1555
b11100 !
b0 "
#1565
b1100011 "
b100000 !
#1575
b100xx0 !
bx "
#1585
b0 "
b11100 !
#1595
b100000 !
b1100011 "
#1605
bx "
b100xx0 !
#1615
b11100 !
b0 "
#1625
b1100011 "
b100000 !
#1635
b100xx0 !
bx "
#1645
b0 "
b11100 !
#1655
b100000 !
b1100011 "
#1665
bx "
b100xx0 !
#1675
b11100 !
b0 "
#1685
b1100011 "
b100000 !
#1695
b100xx0 !
bx "
#1705
b0 "
b11100 !
#1715
b100000 !
b1100011 "
#1725
bx "
b100xx0 !
#1735
b11100 !
b0 "
#1745
b1100011 "
b100000 !
#1755
b100xx0 !
bx "
#1765
b0 "
b11100 !
#1775
b100000 !
b1100011 "
#1785
bx "
b100xx0 !
#1795
b11100 !
b0 "
#1805
b1100011 "
b100000 !
#1815
b100xx0 !
bx "
#1825
b0 "
b11100 !
#1835
b100000 !
b1100011 "
#1845
bx "
b100xx0 !
#1855
b11100 !
b0 "
#1865
b1100011 "
b100000 !
#1875
b100xx0 !
bx "
#1885
b0 "
b11100 !
#1895
b100000 !
b1100011 "
#1905
bx "
b100xx0 !
#1915
b11100 !
b0 "
#1925
b1100011 "
b100000 !
#1935
b100xx0 !
bx "
#1945
b0 "
b11100 !
#1955
b100000 !
b1100011 "
#1965
bx "
b100xx0 !
#1975
b11100 !
b0 "
#1985
b1100011 "
b100000 !
#1995
b100xx0 !
bx "
#2005
b0 "
b11100 !
#2015
b100000 !
b1100011 "
#2025
bx "
b100xx0 !
#2035
b11100 !
b0 "
#2045
b1100011 "
b100000 !
#2055
b100xx0 !
bx "
#2065
b0 "
b11100 !
#2075
b100000 !
b1100011 "
#2085
bx "
b100xx0 !
#2095
b11100 !
b0 "
#2105
b1100011 "
b100000 !
#2115
b100xx0 !
bx "
#2125
b0 "
b11100 !
#2135
b100000 !
b1100011 "
#2145
bx "
b100xx0 !
#2155
b11100 !
b0 "
#2165
b1100011 "
b100000 !
#2175
b100xx0 !
bx "
#2185
b0 "
b11100 !
#2195
b100000 !
b1100011 "
#2205
bx "
b100xx0 !
#2215
b11100 !
b0 "
#2225
b1100011 "
b100000 !
#2235
b100xx0 !
bx "
#2245
b0 "
b11100 !
#2255
b100000 !
b1100011 "
#2265
bx "
b100xx0 !
#2275
b11100 !
b0 "
#2285
b1100011 "
b100000 !
#2295
b100xx0 !
bx "
#2305
b0 "
b11100 !
#2315
b100000 !
b1100011 "
#2325
bx "
b100xx0 !
#2335
b11100 !
b0 "
#2345
b1100011 "
b100000 !
#2355
b100xx0 !
bx "
#2365
b0 "
b11100 !
#2375
b100000 !
b1100011 "
#2385
bx "
b100xx0 !
#2395
b11100 !
b0 "
#2405
b1100011 "
b100000 !
#2415
b100xx0 !
bx "
#2425
b0 "
b11100 !
#2435
b100000 !
b1100011 "
#2445
bx "
b100xx0 !
#2455
b11100 !
b0 "
#2465
b1100011 "
b100000 !
#2475
b100xx0 !
bx "
#2485
b0 "
b11100 !
#2495
b100000 !
b1100011 "
#2505
bx "
b100xx0 !
#2515
b11100 !
b0 "
#2525
b1100011 "
b100000 !
#2535
b100xx0 !
bx "
#2545
b0 "
b11100 !
#2555
b100000 !
b1100011 "
#2565
bx "
b100xx0 !
#2575
b11100 !
b0 "
#2585
b1100011 "
b100000 !
#2595
b100xx0 !
bx "
#2605
b0 "
b11100 !
#2615
b100000 !
b1100011 "
#2625
bx "
b100xx0 !
#2635
b11100 !
b0 "
#2645
b1100011 "
b100000 !
#2655
b100xx0 !
bx "
#2665
b0 "
b11100 !
#2675
b100000 !
b1100011 "
#2685
bx "
b100xx0 !
#2695
b11100 !
b0 "
#2705
b1100011 "
b100000 !
#2715
b100xx0 !
bx "
#2725
b0 "
b11100 !
#2735
b100000 !
b1100011 "
#2745
bx "
b100xx0 !
#2755
b11100 !
b0 "
#2765
b1100011 "
b100000 !
#2775
b100xx0 !
bx "
#2785
b0 "
b11100 !
#2795
b100000 !
b1100011 "
#2805
bx "
b100xx0 !
#2815
b11100 !
b0 "
#2825
b1100011 "
b100000 !
#2835
b100xx0 !
bx "
#2845
b0 "
b11100 !
#2855
b100000 !
b1100011 "
#2865
bx "
b100xx0 !
#2875
b11100 !
b0 "
#2885
b1100011 "
b100000 !
#2895
b100xx0 !
bx "
#2905
b0 "
b11100 !
#2915
b100000 !
b1100011 "
#2925
bx "
b100xx0 !
#2935
b11100 !
b0 "
#2945
b1100011 "
b100000 !
#2955
b100xx0 !
bx "
#2965
b0 "
b11100 !
#2975
b100000 !
b1100011 "
#2985
bx "
b100xx0 !
#2995
b11100 !
b0 "
