2_fase_p2/waveform/tb_test_flushing.vcd
$date
	Thu Jun 25 14:57:45 2026
$end
$version
	Icarus Verilog
$end
$timescale
	1s
$end
$scope module tb_test_flushing $end
$scope module dut $end
$scope module pipe $end
$var wire 32 ! PCF [31:0] $end
$upscope $end
$upscope $end
$upscope $end
$scope module tb_test_flushing $end
$scope module dut $end
$scope module pipe $end
$var reg 32 " InstrD [31:0] $end
$upscope $end
$upscope $end
$upscope $end
$scope module tb_test_flushing $end
$scope module dut $end
$scope module pipe $end
$var wire 1 # FlushD $end
$upscope $end
$upscope $end
$upscope $end
$scope module tb_test_flushing $end
$scope module dut $end
$scope module pipe $end
$var wire 1 $ FlushE $end
$upscope $end
$upscope $end
$upscope $end
$scope module tb_test_flushing $end
$scope module dut $end
$scope module pipe $end
$var wire 2 % PCSrcE [1:0] $end
$upscope $end
$upscope $end
$upscope $end
$enddefinitions $end
$comment Show the parameter values. $end
$dumpall
$end
#0
$dumpvars
b0 %
0$
0#
b0 "
b0 !
$end
#25
b100000000000010010011 "
b100 !
#35
b1000 !
b1000000000000100010011 "
#45
b1000001000100001100011 "
b1100 !
#55
0$
0#
b0 %
b10000 !
b1100001000000110010011 "
#65
b10000010000001000010011 "
b10100 !
#75
b11000 !
b100001000010001100011 "
#85
1$
1#
b1 %
b111110011100000000111100010011 "
b11100 !
#95
0$
0#
b0 %
b0 "
#105
b11100000000001010010011 "
b100000 !
#115
b100100 !
b100000000000000001101111 "
#125
1$
1#
b1 %
b110111100000000000111110010011 "
b101000 !
#135
0$
0#
b0 %
b0 "
#145
b100100000000001100010011 "
b101100 !
#155
b110000 !
b1100011 "
#165
1$
1#
b1 %
bx "
b110xx0 !
#175
0$
0#
b0 %
b101100 !
b0 "
#185
b1100011 "
b110000 !
#195
1$
1#
b1 %
b110xx0 !
bx "
#205
0$
0#
b0 %
b0 "
b101100 !
#215
b110000 !
b1100011 "
#225
1$
1#
b1 %
bx "
b110xx0 !
#235
0$
0#
b0 %
b101100 !
b0 "
#245
b1100011 "
b110000 !
#255
1$
1#
b1 %
b110xx0 !
bx "
#265
0$
0#
b0 %
b0 "
b101100 !
#275
b110000 !
b1100011 "
#285
1$
1#
b1 %
bx "
b110xx0 !
#295
0$
0#
b0 %
b101100 !
b0 "
#305
b1100011 "
b110000 !
#315
1$
1#
b1 %
b110xx0 !
bx "
#325
0$
0#
b0 %
b0 "
b101100 !
#335
b110000 !
b1100011 "
#345
1$
1#
b1 %
bx "
b110xx0 !
#355
0$
0#
b0 %
b101100 !
b0 "
#365
b1100011 "
b110000 !
#375
1$
1#
b1 %
b110xx0 !
bx "
#385
0$
0#
b0 %
b0 "
b101100 !
#395
b110000 !
b1100011 "
#405
1$
1#
b1 %
bx "
b110xx0 !
#415
0$
0#
b0 %
b101100 !
b0 "
#425
b1100011 "
b110000 !
#435
1$
1#
b1 %
b110xx0 !
bx "
#445
0$
0#
b0 %
b0 "
b101100 !
#455
b110000 !
b1100011 "
#465
1$
1#
b1 %
bx "
b110xx0 !
#475
0$
0#
b0 %
b101100 !
b0 "
#485
b1100011 "
b110000 !
#495
1$
1#
b1 %
b110xx0 !
bx "
#505
0$
0#
b0 %
b0 "
b101100 !
#515
b110000 !
b1100011 "
#525
1$
1#
b1 %
bx "
b110xx0 !
#535
0$
0#
b0 %
b101100 !
b0 "
#545
b1100011 "
b110000 !
#555
1$
1#
b1 %
b110xx0 !
bx "
#565
0$
0#
b0 %
b0 "
b101100 !
#575
b110000 !
b1100011 "
#585
1$
1#
b1 %
bx "
b110xx0 !
#595
0$
0#
b0 %
b101100 !
b0 "
#605
b1100011 "
b110000 !
#615
1$
1#
b1 %
b110xx0 !
bx "
#625
0$
0#
b0 %
b0 "
b101100 !
#635
b110000 !
b1100011 "
#645
1$
1#
b1 %
bx "
b110xx0 !
#655
0$
0#
b0 %
b101100 !
b0 "
#665
b1100011 "
b110000 !
#675
1$
1#
b1 %
b110xx0 !
bx "
#685
0$
0#
b0 %
b0 "
b101100 !
#695
b110000 !
b1100011 "
#705
1$
1#
b1 %
bx "
b110xx0 !
#715
0$
0#
b0 %
b101100 !
b0 "
#725
b1100011 "
b110000 !
#735
1$
1#
b1 %
b110xx0 !
bx "
#745
0$
0#
b0 %
b0 "
b101100 !
#755
b110000 !
b1100011 "
#765
1$
1#
b1 %
bx "
b110xx0 !
#775
0$
0#
b0 %
b101100 !
b0 "
#785
b1100011 "
b110000 !
#795
1$
1#
b1 %
b110xx0 !
bx "
#805
0$
0#
b0 %
b0 "
b101100 !
#815
b110000 !
b1100011 "
#825
1$
1#
b1 %
bx "
b110xx0 !
#835
0$
0#
b0 %
b101100 !
b0 "
#845
b1100011 "
b110000 !
#855
1$
1#
b1 %
b110xx0 !
bx "
#865
0$
0#
b0 %
b0 "
b101100 !
#875
b110000 !
b1100011 "
#885
1$
1#
b1 %
bx "
b110xx0 !
#895
0$
0#
b0 %
b101100 !
b0 "
#905
b1100011 "
b110000 !
#915
1$
1#
b1 %
b110xx0 !
bx "
#925
0$
0#
b0 %
b0 "
b101100 !
#935
b110000 !
b1100011 "
#945
1$
1#
b1 %
bx "
b110xx0 !
#955
0$
0#
b0 %
b101100 !
b0 "
#965
b1100011 "
b110000 !
#975
1$
1#
b1 %
b110xx0 !
bx "
#985
0$
0#
b0 %
b0 "
b101100 !
#995
b110000 !
b1100011 "
#1005
1$
1#
b1 %
bx "
b110xx0 !
#1015
0$
0#
b0 %
b101100 !
b0 "
#1025
b1100011 "
b110000 !
#1035
1$
1#
b1 %
b110xx0 !
bx "
#1045
0$
0#
b0 %
b0 "
b101100 !
#1055
b110000 !
b1100011 "
#1065
1$
1#
b1 %
bx "
b110xx0 !
#1075
0$
0#
b0 %
b101100 !
b0 "
#1085
b1100011 "
b110000 !
#1095
1$
1#
b1 %
b110xx0 !
bx "
#1105
0$
0#
b0 %
b0 "
b101100 !
#1115
b110000 !
b1100011 "
#1125
1$
1#
b1 %
bx "
b110xx0 !
#1135
0$
0#
b0 %
b101100 !
b0 "
#1145
b1100011 "
b110000 !
#1155
1$
1#
b1 %
b110xx0 !
bx "
#1165
0$
0#
b0 %
b0 "
b101100 !
#1175
b110000 !
b1100011 "
#1185
1$
1#
b1 %
bx "
b110xx0 !
#1195
0$
0#
b0 %
b101100 !
b0 "
#1205
b1100011 "
b110000 !
#1215
1$
1#
b1 %
b110xx0 !
bx "
#1225
0$
0#
b0 %
b0 "
b101100 !
#1235
b110000 !
b1100011 "
#1245
1$
1#
b1 %
bx "
b110xx0 !
#1255
0$
0#
b0 %
b101100 !
b0 "
#1265
b1100011 "
b110000 !
#1275
1$
1#
b1 %
b110xx0 !
bx "
#1285
0$
0#
b0 %
b0 "
b101100 !
#1295
b110000 !
b1100011 "
#1305
1$
1#
b1 %
bx "
b110xx0 !
#1315
0$
0#
b0 %
b101100 !
b0 "
#1325
b1100011 "
b110000 !
#1335
1$
1#
b1 %
b110xx0 !
bx "
#1345
0$
0#
b0 %
b0 "
b101100 !
#1355
b110000 !
b1100011 "
#1365
1$
1#
b1 %
bx "
b110xx0 !
#1375
0$
0#
b0 %
b101100 !
b0 "
#1385
b1100011 "
b110000 !
#1395
1$
1#
b1 %
b110xx0 !
bx "
#1405
0$
0#
b0 %
b0 "
b101100 !
#1415
b110000 !
b1100011 "
#1425
1$
1#
b1 %
bx "
b110xx0 !
#1435
0$
0#
b0 %
b101100 !
b0 "
#1445
b1100011 "
b110000 !
#1455
1$
1#
b1 %
b110xx0 !
bx "
#1465
0$
0#
b0 %
b0 "
b101100 !
#1475
b110000 !
b1100011 "
#1485
1$
1#
b1 %
bx "
b110xx0 !
#1495
0$
0#
b0 %
b101100 !
b0 "
#1505
b1100011 "
b110000 !
#1515
1$
1#
b1 %
b110xx0 !
bx "
#1525
0$
0#
b0 %
b0 "
b101100 !
#1535
b110000 !
b1100011 "
#1545
1$
1#
b1 %
bx "
b110xx0 !
#1555
0$
0#
b0 %
b101100 !
b0 "
#1565
b1100011 "
b110000 !
#1575
1$
1#
b1 %
b110xx0 !
bx "
#1585
0$
0#
b0 %
b0 "
b101100 !
#1595
b110000 !
b1100011 "
#1605
1$
1#
b1 %
bx "
b110xx0 !
#1615
0$
0#
b0 %
b101100 !
b0 "
#1625
b1100011 "
b110000 !
#1635
1$
1#
b1 %
b110xx0 !
bx "
#1645
0$
0#
b0 %
b0 "
b101100 !
#1655
b110000 !
b1100011 "
#1665
1$
1#
b1 %
bx "
b110xx0 !
#1675
0$
0#
b0 %
b101100 !
b0 "
#1685
b1100011 "
b110000 !
#1695
1$
1#
b1 %
b110xx0 !
bx "
#1705
0$
0#
b0 %
b0 "
b101100 !
#1715
b110000 !
b1100011 "
#1725
1$
1#
b1 %
bx "
b110xx0 !
#1735
0$
0#
b0 %
b101100 !
b0 "
#1745
b1100011 "
b110000 !
#1755
1$
1#
b1 %
b110xx0 !
bx "
#1765
0$
0#
b0 %
b0 "
b101100 !
#1775
b110000 !
b1100011 "
#1785
1$
1#
b1 %
bx "
b110xx0 !
#1795
0$
0#
b0 %
b101100 !
b0 "
#1805
b1100011 "
b110000 !
#1815
1$
1#
b1 %
b110xx0 !
bx "
#1825
0$
0#
b0 %
b0 "
b101100 !
#1835
b110000 !
b1100011 "
#1845
1$
1#
b1 %
bx "
b110xx0 !
#1855
0$
0#
b0 %
b101100 !
b0 "
#1865
b1100011 "
b110000 !
#1875
1$
1#
b1 %
b110xx0 !
bx "
#1885
0$
0#
b0 %
b0 "
b101100 !
#1895
b110000 !
b1100011 "
#1905
1$
1#
b1 %
bx "
b110xx0 !
#1915
0$
0#
b0 %
b101100 !
b0 "
#1925
b1100011 "
b110000 !
#1935
1$
1#
b1 %
b110xx0 !
bx "
#1945
0$
0#
b0 %
b0 "
b101100 !
#1955
b110000 !
b1100011 "
#1965
1$
1#
b1 %
bx "
b110xx0 !
#1975
0$
0#
b0 %
b101100 !
b0 "
#1985
b1100011 "
b110000 !
#1995
1$
1#
b1 %
b110xx0 !
bx "
#2005
0$
0#
b0 %
b0 "
b101100 !
#2015
b110000 !
b1100011 "
#2025
1$
1#
b1 %
bx "
b110xx0 !
#2035
0$
0#
b0 %
b101100 !
b0 "
#2045
b1100011 "
b110000 !
#2055
1$
1#
b1 %
b110xx0 !
bx "
#2065
0$
0#
b0 %
b0 "
b101100 !
#2075
b110000 !
b1100011 "
#2085
1$
1#
b1 %
bx "
b110xx0 !
#2095
0$
0#
b0 %
b101100 !
b0 "
#2105
b1100011 "
b110000 !
#2115
1$
1#
b1 %
b110xx0 !
bx "
#2125
0$
0#
b0 %
b0 "
b101100 !
#2135
b110000 !
b1100011 "
#2145
1$
1#
b1 %
bx "
b110xx0 !
#2155
0$
0#
b0 %
b101100 !
b0 "
#2165
b1100011 "
b110000 !
#2175
1$
1#
b1 %
b110xx0 !
bx "
#2185
0$
0#
b0 %
b0 "
b101100 !
#2195
b110000 !
b1100011 "
#2205
1$
1#
b1 %
bx "
b110xx0 !
#2215
0$
0#
b0 %
b101100 !
b0 "
#2225
b1100011 "
b110000 !
#2235
1$
1#
b1 %
b110xx0 !
bx "
#2245
0$
0#
b0 %
b0 "
b101100 !
#2255
b110000 !
b1100011 "
#2265
1$
1#
b1 %
bx "
b110xx0 !
#2275
0$
0#
b0 %
b101100 !
b0 "
#2285
b1100011 "
b110000 !
#2295
1$
1#
b1 %
b110xx0 !
bx "
#2305
0$
0#
b0 %
b0 "
b101100 !
#2315
b110000 !
b1100011 "
#2325
1$
1#
b1 %
bx "
b110xx0 !
#2335
0$
0#
b0 %
b101100 !
b0 "
#2345
b1100011 "
b110000 !
#2355
1$
1#
b1 %
b110xx0 !
bx "
#2365
0$
0#
b0 %
b0 "
b101100 !
#2375
b110000 !
b1100011 "
#2385
1$
1#
b1 %
bx "
b110xx0 !
#2395
0$
0#
b0 %
b101100 !
b0 "
#2405
b1100011 "
b110000 !
#2415
1$
1#
b1 %
b110xx0 !
bx "
#2425
0$
0#
b0 %
b0 "
b101100 !
#2435
b110000 !
b1100011 "
#2445
1$
1#
b1 %
bx "
b110xx0 !
#2455
0$
0#
b0 %
b101100 !
b0 "
#2465
b1100011 "
b110000 !
#2475
1$
1#
b1 %
b110xx0 !
bx "
#2485
0$
0#
b0 %
b0 "
b101100 !
#2495
b110000 !
b1100011 "
#2505
1$
1#
b1 %
bx "
b110xx0 !
#2515
0$
0#
b0 %
b101100 !
b0 "
#2525
b1100011 "
b110000 !
#2535
1$
1#
b1 %
b110xx0 !
bx "
#2545
0$
0#
b0 %
b0 "
b101100 !
#2555
b110000 !
b1100011 "
#2565
1$
1#
b1 %
bx "
b110xx0 !
#2575
0$
0#
b0 %
b101100 !
b0 "
#2585
b1100011 "
b110000 !
#2595
1$
1#
b1 %
b110xx0 !
bx "
#2605
0$
0#
b0 %
b0 "
b101100 !
#2615
b110000 !
b1100011 "
#2625
1$
1#
b1 %
bx "
b110xx0 !
#2635
0$
0#
b0 %
b101100 !
b0 "
#2645
b1100011 "
b110000 !
#2655
1$
1#
b1 %
b110xx0 !
bx "
#2665
0$
0#
b0 %
b0 "
b101100 !
#2675
b110000 !
b1100011 "
#2685
1$
1#
b1 %
bx "
b110xx0 !
#2695
0$
0#
b0 %
b101100 !
b0 "
#2705
b1100011 "
b110000 !
#2715
1$
1#
b1 %
b110xx0 !
bx "
#2725
0$
0#
b0 %
b0 "
b101100 !
#2735
b110000 !
b1100011 "
#2745
1$
1#
b1 %
bx "
b110xx0 !
#2755
0$
0#
b0 %
b101100 !
b0 "
#2765
b1100011 "
b110000 !
#2775
1$
1#
b1 %
b110xx0 !
bx "
#2785
0$
0#
b0 %
b0 "
b101100 !
#2795
b110000 !
b1100011 "
#2805
1$
1#
b1 %
bx "
b110xx0 !
#2815
0$
0#
b0 %
b101100 !
b0 "
#2825
b1100011 "
b110000 !
#2835
1$
1#
b1 %
b110xx0 !
bx "
#2845
0$
0#
b0 %
b0 "
b101100 !
#2855
b110000 !
b1100011 "
#2865
1$
1#
b1 %
bx "
b110xx0 !
#2875
0$
0#
b0 %
b101100 !
b0 "
#2885
b1100011 "
b110000 !
#2895
1$
1#
b1 %
b110xx0 !
bx "
#2905
0$
0#
b0 %
b0 "
b101100 !
#2915
b110000 !
b1100011 "
#2925
1$
1#
b1 %
bx "
b110xx0 !
#2935
0$
0#
b0 %
b101100 !
b0 "
#2945
b1100011 "
b110000 !
#2955
1$
1#
b1 %
b110xx0 !
bx "
#2965
0$
0#
b0 %
b0 "
b101100 !
#2975
b110000 !
b1100011 "
#2985
1$
1#
b1 %
bx "
b110xx0 !
#2995
0$
0#
b0 %
b101100 !
b0 "
