2_fase_p2/waveform/tb_test_jump_rvc.vcd
$date
	Sun Jun 28 17:15:39 2026
$end
$version
	Icarus Verilog
$end
$timescale
	1s
$end
$scope module tb_test_jump_rvc $end
$scope module dut $end
$scope module pipe $end
$var wire 32 ! PCF [31:0] $end
$upscope $end
$upscope $end
$upscope $end
$scope module tb_test_jump_rvc $end
$scope module dut $end
$scope module pipe $end
$var wire 32 " InstrF [31:0] $end
$upscope $end
$upscope $end
$upscope $end
$scope module tb_test_jump_rvc $end
$scope module dut $end
$scope module pipe $end
$var reg 32 # InstrD [31:0] $end
$upscope $end
$upscope $end
$upscope $end
$scope module tb_test_jump_rvc $end
$scope module dut $end
$scope module pipe $end
$scope module ifs $end
$var wire 1 $ IsCompressedF $end
$upscope $end
$upscope $end
$upscope $end
$upscope $end
$scope module tb_test_jump_rvc $end
$scope module dut $end
$scope module pipe $end
$var wire 2 % PCSrcE [1:0] $end
$upscope $end
$upscope $end
$upscope $end
$scope module tb_test_jump_rvc $end
$scope module dut $end
$scope module pipe $end
$var reg 5 & RdE [4:0] $end
$upscope $end
$upscope $end
$upscope $end
$scope module tb_test_jump_rvc $end
$scope module dut $end
$scope module pipe $end
$var wire 32 ' ALUResultE [31:0] $end
$upscope $end
$upscope $end
$upscope $end
$scope module tb_test_jump_rvc $end
$scope module dut $end
$scope module pipe $end
$scope module exs $end
$var wire 32 ( PCTargetE [31:0] $end
$upscope $end
$upscope $end
$upscope $end
$upscope $end
$scope module tb_test_jump_rvc $end
$scope module dut $end
$scope module pipe $end
$scope module exs $end
$var wire 32 ) PCJalrE [31:0] $end
$upscope $end
$upscope $end
$upscope $end
$upscope $end
$enddefinitions $end
$comment Show the parameter values. $end
$dumpall
$end
#0
$dumpvars
b0 )
b0 (
b0 '
b0 &
b0 %
1$
b0 #
b10101000000010000010011 "
b0 !
$end
#25
b1000000000000001101111 "
b10101000000010000010011 #
b10 !
#35
b11101000000010000010011 "
b100 )
b101 '
b100 !
b1000000000000001101111 #
b1000 &
b101 (
#45
b101001001000010010010011 "
b1 %
b0 )
b0 '
b0 &
b100 (
b11101000000010000010011 #
b110 !
#55
b11101000000010000010011 "
b0 %
b100 !
b0 #
b0 (
#65
b101001001000010010010011 "
b11101000000010000010011 #
b110 !
#75
b1000000000000011101111 "
b1100 )
b1100 '
b1000 !
b101001001000010010010011 #
b1000 &
b1011 (
#85
b1010001010000010100010011 "
b1010 )
b1010 '
b1001 &
b10000 (
b1000000000000011101111 #
b1010 !
#95
b1101010000010100010011 "
b1 %
b0 )
b0 '
b1100 !
b1010001010000010100010011 #
b1 &
b1010 (
#105
b1010001010000010100010011 "
b0 %
b0 &
b0 (
b0 #
b1010 !
#115
b1101010000010100010011 "
b1100 !
b1010001010000010100010011 #
#125
b1000000001100111 "
b10100 )
b10100 '
b1010 &
b11110 (
b1101010000010100010011 #
b1110 !
#135
bx "
x$
b10110 )
b10111 '
b10000 !
b1000000001100111 #
b1111 (
#145
b1010 )
b1010 '
b10 %
b0 &
b1110 (
bx #
b10xx0 !
#155
b0 )
1$
b0 '
b1010001010000010100010011 "
b0 %
b1010 !
b0 #
b0 (
#165
b1101010000010100010011 "
b1010001010000010100010011 #
b1100 !
#175
b1000000001100111 "
b101010 )
b101011 '
b1110 !
b1101010000010100010011 #
b1010 &
b11110 (
#185
bx "
b101110 )
x$
b101110 '
b1111 (
b1000000001100111 #
b10000 !
#195
b1010 )
b1010 '
b10 %
b10xx0 !
bx #
b0 &
b1110 (
#205
b0 )
b0 '
1$
b1010001010000010100010011 "
b0 %
b0 (
b0 #
b1010 !
#215
b1101010000010100010011 "
b1100 !
b1010001010000010100010011 #
#225
b1000000001100111 "
b1000010 )
b1000010 '
b1010 &
b11110 (
b1101010000010100010011 #
b1110 !
#235
bx "
x$
b1000100 )
b1000101 '
b10000 !
b1000000001100111 #
b1111 (
#245
b1010 )
b1010 '
b10 %
b0 &
b1110 (
bx #
b10xx0 !
#255
b0 )
1$
b0 '
b1010001010000010100010011 "
b0 %
b1010 !
b0 #
b0 (
#265
b1101010000010100010011 "
b1010001010000010100010011 #
b1100 !
#275
b1000000001100111 "
b1011000 )
b1011001 '
b1110 !
b1101010000010100010011 #
b1010 &
b11110 (
#285
bx "
b1011100 )
x$
b1011100 '
b1111 (
b1000000001100111 #
b10000 !
#295
b1010 )
b1010 '
b10 %
b10xx0 !
bx #
b0 &
b1110 (
#305
b0 )
b0 '
1$
b1010001010000010100010011 "
b0 %
b0 (
b0 #
b1010 !
#315
b1101010000010100010011 "
b1100 !
b1010001010000010100010011 #
#325
b1000000001100111 "
b1110000 )
b1110000 '
b1010 &
b11110 (
b1101010000010100010011 #
b1110 !
#335
bx "
x$
b1110010 )
b1110011 '
b10000 !
b1000000001100111 #
b1111 (
#345
b1010 )
b1010 '
b10 %
b0 &
b1110 (
bx #
b10xx0 !
#355
b0 )
1$
b0 '
b1010001010000010100010011 "
b0 %
b1010 !
b0 #
b0 (
#365
b1101010000010100010011 "
b1010001010000010100010011 #
b1100 !
#375
b1000000001100111 "
b10000110 )
b10000111 '
b1110 !
b1101010000010100010011 #
b1010 &
b11110 (
#385
bx "
b10001010 )
x$
b10001010 '
b1111 (
b1000000001100111 #
b10000 !
#395
b1010 )
b1010 '
b10 %
b10xx0 !
bx #
b0 &
b1110 (
#405
b0 )
b0 '
1$
b1010001010000010100010011 "
b0 %
b0 (
b0 #
b1010 !
#415
b1101010000010100010011 "
b1100 !
b1010001010000010100010011 #
#425
b1000000001100111 "
b10011110 )
b10011110 '
b1010 &
b11110 (
b1101010000010100010011 #
b1110 !
#435
bx "
x$
b10100000 )
b10100001 '
b10000 !
b1000000001100111 #
b1111 (
#445
b1010 )
b1010 '
b10 %
b0 &
b1110 (
bx #
b10xx0 !
#455
b0 )
1$
b0 '
b1010001010000010100010011 "
b0 %
b1010 !
b0 #
b0 (
#465
b1101010000010100010011 "
b1010001010000010100010011 #
b1100 !
#475
b1000000001100111 "
b10110100 )
b10110101 '
b1110 !
b1101010000010100010011 #
b1010 &
b11110 (
#485
bx "
b10111000 )
x$
b10111000 '
b1111 (
b1000000001100111 #
b10000 !
#495
b1010 )
b1010 '
b10 %
b10xx0 !
bx #
b0 &
b1110 (
#505
b0 )
b0 '
1$
b1010001010000010100010011 "
b0 %
b0 (
b0 #
b1010 !
#515
b1101010000010100010011 "
b1100 !
b1010001010000010100010011 #
#525
b1000000001100111 "
b11001100 )
b11001100 '
b1010 &
b11110 (
b1101010000010100010011 #
b1110 !
#535
bx "
x$
b11001110 )
b11001111 '
b10000 !
b1000000001100111 #
b1111 (
#545
b1010 )
b1010 '
b10 %
b0 &
b1110 (
bx #
b10xx0 !
#555
b0 )
1$
b0 '
b1010001010000010100010011 "
b0 %
b1010 !
b0 #
b0 (
#565
b1101010000010100010011 "
b1010001010000010100010011 #
b1100 !
#575
b1000000001100111 "
b11100010 )
b11100011 '
b1110 !
b1101010000010100010011 #
b1010 &
b11110 (
#585
bx "
b11100110 )
x$
b11100110 '
b1111 (
b1000000001100111 #
b10000 !
#595
b1010 )
b1010 '
b10 %
b10xx0 !
bx #
b0 &
b1110 (
#605
b0 )
b0 '
1$
b1010001010000010100010011 "
b0 %
b0 (
b0 #
b1010 !
#615
b1101010000010100010011 "
b1100 !
b1010001010000010100010011 #
#625
b1000000001100111 "
b11111010 )
b11111010 '
b1010 &
b11110 (
b1101010000010100010011 #
b1110 !
#635
bx "
x$
b11111100 )
b11111101 '
b10000 !
b1000000001100111 #
b1111 (
#645
b1010 )
b1010 '
b10 %
b0 &
b1110 (
bx #
b10xx0 !
#655
b0 )
1$
b0 '
b1010001010000010100010011 "
b0 %
b1010 !
b0 #
b0 (
#665
b1101010000010100010011 "
b1010001010000010100010011 #
b1100 !
#675
b1000000001100111 "
b100010000 )
b100010001 '
b1110 !
b1101010000010100010011 #
b1010 &
b11110 (
#685
bx "
b100010100 )
x$
b100010100 '
b1111 (
b1000000001100111 #
b10000 !
#695
b1010 )
b1010 '
b10 %
b10xx0 !
bx #
b0 &
b1110 (
#705
b0 )
b0 '
1$
b1010001010000010100010011 "
b0 %
b0 (
b0 #
b1010 !
#715
b1101010000010100010011 "
b1100 !
b1010001010000010100010011 #
#725
b1000000001100111 "
b100101000 )
b100101000 '
b1010 &
b11110 (
b1101010000010100010011 #
b1110 !
#735
bx "
x$
b100101010 )
b100101011 '
b10000 !
b1000000001100111 #
b1111 (
#745
b1010 )
b1010 '
b10 %
b0 &
b1110 (
bx #
b10xx0 !
#755
b0 )
1$
b0 '
b1010001010000010100010011 "
b0 %
b1010 !
b0 #
b0 (
#765
b1101010000010100010011 "
b1010001010000010100010011 #
b1100 !
#775
b1000000001100111 "
b100111110 )
b100111111 '
b1110 !
b1101010000010100010011 #
b1010 &
b11110 (
#785
bx "
b101000010 )
x$
b101000010 '
b1111 (
b1000000001100111 #
b10000 !
#795
b1010 )
b1010 '
b10 %
b10xx0 !
bx #
b0 &
b1110 (
#805
b0 )
b0 '
1$
b1010001010000010100010011 "
b0 %
b0 (
b0 #
b1010 !
#815
b1101010000010100010011 "
b1100 !
b1010001010000010100010011 #
#825
b1000000001100111 "
b101010110 )
b101010110 '
b1010 &
b11110 (
b1101010000010100010011 #
b1110 !
#835
bx "
x$
b101011000 )
b101011001 '
b10000 !
b1000000001100111 #
b1111 (
#845
b1010 )
b1010 '
b10 %
b0 &
b1110 (
bx #
b10xx0 !
#855
b0 )
1$
b0 '
b1010001010000010100010011 "
b0 %
b1010 !
b0 #
b0 (
#865
b1101010000010100010011 "
b1010001010000010100010011 #
b1100 !
#875
b1000000001100111 "
b101101100 )
b101101101 '
b1110 !
b1101010000010100010011 #
b1010 &
b11110 (
#885
bx "
b101110000 )
x$
b101110000 '
b1111 (
b1000000001100111 #
b10000 !
#895
b1010 )
b1010 '
b10 %
b10xx0 !
bx #
b0 &
b1110 (
#905
b0 )
b0 '
1$
b1010001010000010100010011 "
b0 %
b0 (
b0 #
b1010 !
#915
b1101010000010100010011 "
b1100 !
b1010001010000010100010011 #
#925
b1000000001100111 "
b110000100 )
b110000100 '
b1010 &
b11110 (
b1101010000010100010011 #
b1110 !
#935
bx "
x$
b110000110 )
b110000111 '
b10000 !
b1000000001100111 #
b1111 (
#945
b1010 )
b1010 '
b10 %
b0 &
b1110 (
bx #
b10xx0 !
#955
b0 )
1$
b0 '
b1010001010000010100010011 "
b0 %
b1010 !
b0 #
b0 (
#965
b1101010000010100010011 "
b1010001010000010100010011 #
b1100 !
#975
b1000000001100111 "
b110011010 )
b110011011 '
b1110 !
b1101010000010100010011 #
b1010 &
b11110 (
#985
bx "
b110011110 )
x$
b110011110 '
b1111 (
b1000000001100111 #
b10000 !
#995
b1010 )
b1010 '
b10 %
b10xx0 !
bx #
b0 &
b1110 (
