2_fase_p2/waveform/tb_test_instrucciones.vcd
$date
	Thu Jun 25 14:57:36 2026
$end
$version
	Icarus Verilog
$end
$timescale
	1s
$end
$scope module tb_test_instrucciones $end
$scope module dut $end
$scope module pipe $end
$var wire 32 ! PCF [31:0] $end
$upscope $end
$upscope $end
$upscope $end
$scope module tb_test_instrucciones $end
$scope module dut $end
$scope module pipe $end
$var wire 32 " InstrF [31:0] $end
$upscope $end
$upscope $end
$upscope $end
$scope module tb_test_instrucciones $end
$scope module dut $end
$scope module pipe $end
$var reg 32 # InstrD [31:0] $end
$upscope $end
$upscope $end
$upscope $end
$scope module tb_test_instrucciones $end
$scope module dut $end
$scope module pipe $end
$var wire 32 $ ALUResultE [31:0] $end
$upscope $end
$upscope $end
$upscope $end
$enddefinitions $end
$comment Show the parameter values. $end
$dumpall
$end
#0
$dumpvars
b0 $
b0 #
b110000000000000010010011 "
b0 !
$end
#25
b10100000000000100010011 "
b110000000000000010010011 #
b100 !
#35
b1000001000000110110011 "
b1100 $
b1000 !
b10100000000000100010011 #
#45
b101 $
b1000000001000001000001000110011 "
b1000001000000110110011 #
b1100 !
#55
b1000001111001010110011 "
b10001 $
b10000 !
b1000000001000001000001000110011 #
#65
b1000001110001100110011 "
b111 $
b1000001111001010110011 #
b10100 !
#75
b1000001100001110110011 "
b100 $
b11000 !
b1000001110001100110011 #
#85
b1000001001010000110011 "
b1101 $
b1000001100001110110011 #
b11100 !
#95
b1000001101010010110011 "
b1001 $
b100000 !
b1000001001010000110011 #
#105
b1000000001000001101010100110011 "
b110000000 $
b1000001101010010110011 #
b100100 !
#115
b1000001001010110010011 "
b0 $
b101000 !
b1000000001000001101010100110011 #
#125
b100001101011000010011 "
b1000001001010110010011 #
b101100 !
#135
b1000000000100001101011010010011 "
b110000 $
b110000 !
b100001101011000010011 #
#145
b11000001111011100010011 "
b110 $
b1000000000100001101011010010011 #
b110100 !
#155
b100001110011110010011 "
b111000 !
b11000001111011100010011 #
#165
b111100001100100000010011 "
b100 $
b100001110011110010011 #
b111100 !
#175
b1100010110111 "
b1101 $
b1000000 !
b111100001100100000010011 #
#185
b100000010000000100011 "
b11 $
b1100010110111 #
b1000100 !
#195
b10100100000011 "
b1000000000000 $
b1001000 !
b100000010000000100011 #
#205
b100001000010001100011 "
b0 $
b10100100000011 #
b1001100 !
#215
b110111100000000100110010011 "
b1010000 !
b100001000010001100011 #
#225
b0 $
b1101111000000000101000010011 "
b110111100000000100110010011 #
b1010100 !
#235
b0 $
b0 #
#245
b1000001001010001100011 "
b1101111000000000101000010011 #
b1011000 !
#255
b10100110100000000101010010011 "
b11011110 $
b1011100 !
b1000001001010001100011 #
#265
b11011110000000000101100010011 "
b111 $
b10100110100000000101010010011 #
b1100000 !
#275
b0 $
b0 #
#285
b100000000000101111101111 "
b11011110000000000101100010011 #
b1100100 !
#295
b100010101100000000110000010011 "
b110111100 $
b1101000 !
b100000000000101111101111 #
#305
b110000000 $
b110011100111 "
b100010101100000000110000010011 #
b1101100 !
#315
b0 $
b0 #
#325
bx "
b110011100111 #
b1110000 !
#335
b1110xx0 !
bx #
#345
b110000000000000010010011 "
b0 #
b0 !
#355
b10100000000000100010011 "
b100 !
b110000000000000010010011 #
#365
b1100 $
b1000001000000110110011 "
b10100000000000100010011 #
b1000 !
#375
b1000000001000001000001000110011 "
b101 $
b1100 !
b1000001000000110110011 #
#385
b10001 $
b1000001111001010110011 "
b1000000001000001000001000110011 #
b10000 !
#395
b1000001110001100110011 "
b111 $
b10100 !
b1000001111001010110011 #
#405
b1000001100001110110011 "
b100 $
b1000001110001100110011 #
b11000 !
#415
b1000001001010000110011 "
b1101 $
b11100 !
b1000001100001110110011 #
#425
b1000001101010010110011 "
b1001 $
b1000001001010000110011 #
b100000 !
#435
b1000000001000001101010100110011 "
b110000000 $
b100100 !
b1000001101010010110011 #
#445
b1000001001010110010011 "
b0 $
b1000000001000001101010100110011 #
b101000 !
#455
b100001101011000010011 "
b101100 !
b1000001001010110010011 #
#465
b1000000000100001101011010010011 "
b110000 $
b100001101011000010011 #
b110000 !
#475
b11000001111011100010011 "
b110 $
b110100 !
b1000000000100001101011010010011 #
#485
b100001110011110010011 "
b11000001111011100010011 #
b111000 !
#495
b111100001100100000010011 "
b100 $
b111100 !
b100001110011110010011 #
#505
b1100010110111 "
b1101 $
b111100001100100000010011 #
b1000000 !
#515
b100000010000000100011 "
b11 $
b1000100 !
b1100010110111 #
#525
b10100100000011 "
b1000000000000 $
b100000010000000100011 #
b1001000 !
#535
b100001000010001100011 "
b0 $
b1001100 !
b10100100000011 #
#545
b110111100000000100110010011 "
b100001000010001100011 #
b1010000 !
#555
b0 $
b1101111000000000101000010011 "
b1010100 !
b110111100000000100110010011 #
#565
b0 $
b0 #
#575
b1000001001010001100011 "
b1011000 !
b1101111000000000101000010011 #
#585
b11011110 $
b10100110100000000101010010011 "
b1000001001010001100011 #
b1011100 !
#595
b11011110000000000101100010011 "
b111 $
b1100000 !
b10100110100000000101010010011 #
#605
b0 $
b0 #
#615
b100000000000101111101111 "
b1100100 !
b11011110000000000101100010011 #
#625
b110111100 $
b100010101100000000110000010011 "
b100000000000101111101111 #
b1101000 !
#635
b110011100111 "
b110000000 $
b1101100 !
b100010101100000000110000010011 #
#645
b0 $
b0 #
#655
bx "
b1110000 !
b110011100111 #
#665
bx #
b1110xx0 !
#675
b110000000000000010010011 "
b0 !
b0 #
#685
b10100000000000100010011 "
b110000000000000010010011 #
b100 !
#695
b1000001000000110110011 "
b1100 $
b1000 !
b10100000000000100010011 #
#705
b101 $
b1000000001000001000001000110011 "
b1000001000000110110011 #
b1100 !
#715
b1000001111001010110011 "
b10001 $
b10000 !
b1000000001000001000001000110011 #
#725
b1000001110001100110011 "
b111 $
b1000001111001010110011 #
b10100 !
#735
b1000001100001110110011 "
b100 $
b11000 !
b1000001110001100110011 #
#745
b1000001001010000110011 "
b1101 $
b1000001100001110110011 #
b11100 !
#755
b1000001101010010110011 "
b1001 $
b100000 !
b1000001001010000110011 #
#765
b1000000001000001101010100110011 "
b110000000 $
b1000001101010010110011 #
b100100 !
#775
b1000001001010110010011 "
b0 $
b101000 !
b1000000001000001101010100110011 #
#785
b100001101011000010011 "
b1000001001010110010011 #
b101100 !
#795
b1000000000100001101011010010011 "
b110000 $
b110000 !
b100001101011000010011 #
#805
b11000001111011100010011 "
b110 $
b1000000000100001101011010010011 #
b110100 !
#815
b100001110011110010011 "
b111000 !
b11000001111011100010011 #
#825
b111100001100100000010011 "
b100 $
b100001110011110010011 #
b111100 !
#835
b1100010110111 "
b1101 $
b1000000 !
b111100001100100000010011 #
#845
b100000010000000100011 "
b11 $
b1100010110111 #
b1000100 !
#855
b10100100000011 "
b1000000000000 $
b1001000 !
b100000010000000100011 #
#865
b100001000010001100011 "
b0 $
b10100100000011 #
b1001100 !
#875
b110111100000000100110010011 "
b1010000 !
b100001000010001100011 #
#885
b0 $
b1101111000000000101000010011 "
b110111100000000100110010011 #
b1010100 !
#895
b0 $
b0 #
#905
b1000001001010001100011 "
b1101111000000000101000010011 #
b1011000 !
#915
b10100110100000000101010010011 "
b11011110 $
b1011100 !
b1000001001010001100011 #
#925
b11011110000000000101100010011 "
b111 $
b10100110100000000101010010011 #
b1100000 !
#935
b0 $
b0 #
#945
b100000000000101111101111 "
b11011110000000000101100010011 #
b1100100 !
#955
b100010101100000000110000010011 "
b110111100 $
b1101000 !
b100000000000101111101111 #
#965
b110000000 $
b110011100111 "
b100010101100000000110000010011 #
b1101100 !
#975
b0 $
b0 #
#985
bx "
b110011100111 #
b1110000 !
#995
b1110xx0 !
bx #
#1005
b110000000000000010010011 "
b0 #
b0 !
#1015
b10100000000000100010011 "
b100 !
b110000000000000010010011 #
#1025
b1100 $
b1000001000000110110011 "
b10100000000000100010011 #
b1000 !
#1035
b1000000001000001000001000110011 "
b101 $
b1100 !
b1000001000000110110011 #
#1045
b10001 $
b1000001111001010110011 "
b1000000001000001000001000110011 #
b10000 !
#1055
b1000001110001100110011 "
b111 $
b10100 !
b1000001111001010110011 #
#1065
b1000001100001110110011 "
b100 $
b1000001110001100110011 #
b11000 !
#1075
b1000001001010000110011 "
b1101 $
b11100 !
b1000001100001110110011 #
#1085
b1000001101010010110011 "
b1001 $
b1000001001010000110011 #
b100000 !
#1095
b1000000001000001101010100110011 "
b110000000 $
b100100 !
b1000001101010010110011 #
#1105
b1000001001010110010011 "
b0 $
b1000000001000001101010100110011 #
b101000 !
#1115
b100001101011000010011 "
b101100 !
b1000001001010110010011 #
#1125
b1000000000100001101011010010011 "
b110000 $
b100001101011000010011 #
b110000 !
#1135
b11000001111011100010011 "
b110 $
b110100 !
b1000000000100001101011010010011 #
#1145
b100001110011110010011 "
b11000001111011100010011 #
b111000 !
#1155
b111100001100100000010011 "
b100 $
b111100 !
b100001110011110010011 #
#1165
b1100010110111 "
b1101 $
b111100001100100000010011 #
b1000000 !
#1175
b100000010000000100011 "
b11 $
b1000100 !
b1100010110111 #
#1185
b10100100000011 "
b1000000000000 $
b100000010000000100011 #
b1001000 !
#1195
b100001000010001100011 "
b0 $
b1001100 !
b10100100000011 #
#1205
b110111100000000100110010011 "
b100001000010001100011 #
b1010000 !
#1215
b0 $
b1101111000000000101000010011 "
b1010100 !
b110111100000000100110010011 #
#1225
b0 $
b0 #
#1235
b1000001001010001100011 "
b1011000 !
b1101111000000000101000010011 #
#1245
b11011110 $
b10100110100000000101010010011 "
b1000001001010001100011 #
b1011100 !
#1255
b11011110000000000101100010011 "
b111 $
b1100000 !
b10100110100000000101010010011 #
#1265
b0 $
b0 #
#1275
b100000000000101111101111 "
b1100100 !
b11011110000000000101100010011 #
#1285
b110111100 $
b100010101100000000110000010011 "
b100000000000101111101111 #
b1101000 !
#1295
b110011100111 "
b110000000 $
b1101100 !
b100010101100000000110000010011 #
#1305
b0 $
b0 #
#1315
bx "
b1110000 !
b110011100111 #
#1325
bx #
b1110xx0 !
#1335
b110000000000000010010011 "
b0 !
b0 #
#1345
b10100000000000100010011 "
b110000000000000010010011 #
b100 !
#1355
b1000001000000110110011 "
b1100 $
b1000 !
b10100000000000100010011 #
#1365
b101 $
b1000000001000001000001000110011 "
b1000001000000110110011 #
b1100 !
#1375
b1000001111001010110011 "
b10001 $
b10000 !
b1000000001000001000001000110011 #
#1385
b1000001110001100110011 "
b111 $
b1000001111001010110011 #
b10100 !
#1395
b1000001100001110110011 "
b100 $
b11000 !
b1000001110001100110011 #
#1405
b1000001001010000110011 "
b1101 $
b1000001100001110110011 #
b11100 !
#1415
b1000001101010010110011 "
b1001 $
b100000 !
b1000001001010000110011 #
#1425
b1000000001000001101010100110011 "
b110000000 $
b1000001101010010110011 #
b100100 !
#1435
b1000001001010110010011 "
b0 $
b101000 !
b1000000001000001101010100110011 #
#1445
b100001101011000010011 "
b1000001001010110010011 #
b101100 !
#1455
b1000000000100001101011010010011 "
b110000 $
b110000 !
b100001101011000010011 #
#1465
b11000001111011100010011 "
b110 $
b1000000000100001101011010010011 #
b110100 !
#1475
b100001110011110010011 "
b111000 !
b11000001111011100010011 #
#1485
b111100001100100000010011 "
b100 $
b100001110011110010011 #
b111100 !
#1495
b1100010110111 "
b1101 $
b1000000 !
b111100001100100000010011 #
#1505
b100000010000000100011 "
b11 $
b1100010110111 #
b1000100 !
#1515
b10100100000011 "
b1000000000000 $
b1001000 !
b100000010000000100011 #
#1525
b100001000010001100011 "
b0 $
b10100100000011 #
b1001100 !
#1535
b110111100000000100110010011 "
b1010000 !
b100001000010001100011 #
#1545
b0 $
b1101111000000000101000010011 "
b110111100000000100110010011 #
b1010100 !
#1555
b0 $
b0 #
#1565
b1000001001010001100011 "
b1101111000000000101000010011 #
b1011000 !
#1575
b10100110100000000101010010011 "
b11011110 $
b1011100 !
b1000001001010001100011 #
#1585
b11011110000000000101100010011 "
b111 $
b10100110100000000101010010011 #
b1100000 !
#1595
b0 $
b0 #
#1605
b100000000000101111101111 "
b11011110000000000101100010011 #
b1100100 !
#1615
b100010101100000000110000010011 "
b110111100 $
b1101000 !
b100000000000101111101111 #
#1625
b110000000 $
b110011100111 "
b100010101100000000110000010011 #
b1101100 !
#1635
b0 $
b0 #
#1645
bx "
b110011100111 #
b1110000 !
#1655
b1110xx0 !
bx #
#1665
b110000000000000010010011 "
b0 #
b0 !
#1675
b10100000000000100010011 "
b100 !
b110000000000000010010011 #
#1685
b1100 $
b1000001000000110110011 "
b10100000000000100010011 #
b1000 !
#1695
b1000000001000001000001000110011 "
b101 $
b1100 !
b1000001000000110110011 #
#1705
b10001 $
b1000001111001010110011 "
b1000000001000001000001000110011 #
b10000 !
#1715
b1000001110001100110011 "
b111 $
b10100 !
b1000001111001010110011 #
#1725
b1000001100001110110011 "
b100 $
b1000001110001100110011 #
b11000 !
#1735
b1000001001010000110011 "
b1101 $
b11100 !
b1000001100001110110011 #
#1745
b1000001101010010110011 "
b1001 $
b1000001001010000110011 #
b100000 !
#1755
b1000000001000001101010100110011 "
b110000000 $
b100100 !
b1000001101010010110011 #
#1765
b1000001001010110010011 "
b0 $
b1000000001000001101010100110011 #
b101000 !
#1775
b100001101011000010011 "
b101100 !
b1000001001010110010011 #
#1785
b1000000000100001101011010010011 "
b110000 $
b100001101011000010011 #
b110000 !
#1795
b11000001111011100010011 "
b110 $
b110100 !
b1000000000100001101011010010011 #
#1805
b100001110011110010011 "
b11000001111011100010011 #
b111000 !
#1815
b111100001100100000010011 "
b100 $
b111100 !
b100001110011110010011 #
#1825
b1100010110111 "
b1101 $
b111100001100100000010011 #
b1000000 !
#1835
b100000010000000100011 "
b11 $
b1000100 !
b1100010110111 #
#1845
b10100100000011 "
b1000000000000 $
b100000010000000100011 #
b1001000 !
#1855
b100001000010001100011 "
b0 $
b1001100 !
b10100100000011 #
#1865
b110111100000000100110010011 "
b100001000010001100011 #
b1010000 !
#1875
b0 $
b1101111000000000101000010011 "
b1010100 !
b110111100000000100110010011 #
#1885
b0 $
b0 #
#1895
b1000001001010001100011 "
b1011000 !
b1101111000000000101000010011 #
#1905
b11011110 $
b10100110100000000101010010011 "
b1000001001010001100011 #
b1011100 !
#1915
b11011110000000000101100010011 "
b111 $
b1100000 !
b10100110100000000101010010011 #
#1925
b0 $
b0 #
#1935
b100000000000101111101111 "
b1100100 !
b11011110000000000101100010011 #
#1945
b110111100 $
b100010101100000000110000010011 "
b100000000000101111101111 #
b1101000 !
#1955
b110011100111 "
b110000000 $
b1101100 !
b100010101100000000110000010011 #
#1965
b0 $
b0 #
#1975
bx "
b1110000 !
b110011100111 #
#1985
bx #
b1110xx0 !
#1995
b110000000000000010010011 "
b0 !
b0 #
#2005
b10100000000000100010011 "
b110000000000000010010011 #
b100 !
#2015
b1000001000000110110011 "
b1100 $
b1000 !
b10100000000000100010011 #
#2025
b101 $
b1000000001000001000001000110011 "
b1000001000000110110011 #
b1100 !
#2035
b1000001111001010110011 "
b10001 $
b10000 !
b1000000001000001000001000110011 #
#2045
b1000001110001100110011 "
b111 $
b1000001111001010110011 #
b10100 !
#2055
b1000001100001110110011 "
b100 $
b11000 !
b1000001110001100110011 #
#2065
b1000001001010000110011 "
b1101 $
b1000001100001110110011 #
b11100 !
#2075
b1000001101010010110011 "
b1001 $
b100000 !
b1000001001010000110011 #
#2085
b1000000001000001101010100110011 "
b110000000 $
b1000001101010010110011 #
b100100 !
#2095
b1000001001010110010011 "
b0 $
b101000 !
b1000000001000001101010100110011 #
#2105
b100001101011000010011 "
b1000001001010110010011 #
b101100 !
#2115
b1000000000100001101011010010011 "
b110000 $
b110000 !
b100001101011000010011 #
#2125
b11000001111011100010011 "
b110 $
b1000000000100001101011010010011 #
b110100 !
#2135
b100001110011110010011 "
b111000 !
b11000001111011100010011 #
#2145
b111100001100100000010011 "
b100 $
b100001110011110010011 #
b111100 !
#2155
b1100010110111 "
b1101 $
b1000000 !
b111100001100100000010011 #
#2165
b100000010000000100011 "
b11 $
b1100010110111 #
b1000100 !
#2175
b10100100000011 "
b1000000000000 $
b1001000 !
b100000010000000100011 #
#2185
b100001000010001100011 "
b0 $
b10100100000011 #
b1001100 !
#2195
b110111100000000100110010011 "
b1010000 !
b100001000010001100011 #
#2205
b0 $
b1101111000000000101000010011 "
b110111100000000100110010011 #
b1010100 !
#2215
b0 $
b0 #
#2225
b1000001001010001100011 "
b1101111000000000101000010011 #
b1011000 !
#2235
b10100110100000000101010010011 "
b11011110 $
b1011100 !
b1000001001010001100011 #
#2245
b11011110000000000101100010011 "
b111 $
b10100110100000000101010010011 #
b1100000 !
#2255
b0 $
b0 #
#2265
b100000000000101111101111 "
b11011110000000000101100010011 #
b1100100 !
#2275
b100010101100000000110000010011 "
b110111100 $
b1101000 !
b100000000000101111101111 #
#2285
b110000000 $
b110011100111 "
b100010101100000000110000010011 #
b1101100 !
#2295
b0 $
b0 #
#2305
bx "
b110011100111 #
b1110000 !
#2315
b1110xx0 !
bx #
#2325
b110000000000000010010011 "
b0 #
b0 !
#2335
b10100000000000100010011 "
b100 !
b110000000000000010010011 #
#2345
b1100 $
b1000001000000110110011 "
b10100000000000100010011 #
b1000 !
#2355
b1000000001000001000001000110011 "
b101 $
b1100 !
b1000001000000110110011 #
#2365
b10001 $
b1000001111001010110011 "
b1000000001000001000001000110011 #
b10000 !
#2375
b1000001110001100110011 "
b111 $
b10100 !
b1000001111001010110011 #
#2385
b1000001100001110110011 "
b100 $
b1000001110001100110011 #
b11000 !
#2395
b1000001001010000110011 "
b1101 $
b11100 !
b1000001100001110110011 #
#2405
b1000001101010010110011 "
b1001 $
b1000001001010000110011 #
b100000 !
#2415
b1000000001000001101010100110011 "
b110000000 $
b100100 !
b1000001101010010110011 #
#2425
b1000001001010110010011 "
b0 $
b1000000001000001101010100110011 #
b101000 !
#2435
b100001101011000010011 "
b101100 !
b1000001001010110010011 #
#2445
b1000000000100001101011010010011 "
b110000 $
b100001101011000010011 #
b110000 !
#2455
b11000001111011100010011 "
b110 $
b110100 !
b1000000000100001101011010010011 #
#2465
b100001110011110010011 "
b11000001111011100010011 #
b111000 !
#2475
b111100001100100000010011 "
b100 $
b111100 !
b100001110011110010011 #
#2485
b1100010110111 "
b1101 $
b111100001100100000010011 #
b1000000 !
#2495
b100000010000000100011 "
b11 $
b1000100 !
b1100010110111 #
#2505
b10100100000011 "
b1000000000000 $
b100000010000000100011 #
b1001000 !
#2515
b100001000010001100011 "
b0 $
b1001100 !
b10100100000011 #
#2525
b110111100000000100110010011 "
b100001000010001100011 #
b1010000 !
#2535
b0 $
b1101111000000000101000010011 "
b1010100 !
b110111100000000100110010011 #
#2545
b0 $
b0 #
#2555
b1000001001010001100011 "
b1011000 !
b1101111000000000101000010011 #
#2565
b11011110 $
b10100110100000000101010010011 "
b1000001001010001100011 #
b1011100 !
#2575
b11011110000000000101100010011 "
b111 $
b1100000 !
b10100110100000000101010010011 #
#2585
b0 $
b0 #
#2595
b100000000000101111101111 "
b1100100 !
b11011110000000000101100010011 #
#2605
b110111100 $
b100010101100000000110000010011 "
b100000000000101111101111 #
b1101000 !
#2615
b110011100111 "
b110000000 $
b1101100 !
b100010101100000000110000010011 #
#2625
b0 $
b0 #
#2635
bx "
b1110000 !
b110011100111 #
#2645
bx #
b1110xx0 !
#2655
b110000000000000010010011 "
b0 !
b0 #
#2665
b10100000000000100010011 "
b110000000000000010010011 #
b100 !
#2675
b1000001000000110110011 "
b1100 $
b1000 !
b10100000000000100010011 #
#2685
b101 $
b1000000001000001000001000110011 "
b1000001000000110110011 #
b1100 !
#2695
b1000001111001010110011 "
b10001 $
b10000 !
b1000000001000001000001000110011 #
#2705
b1000001110001100110011 "
b111 $
b1000001111001010110011 #
b10100 !
#2715
b1000001100001110110011 "
b100 $
b11000 !
b1000001110001100110011 #
#2725
b1000001001010000110011 "
b1101 $
b1000001100001110110011 #
b11100 !
#2735
b1000001101010010110011 "
b1001 $
b100000 !
b1000001001010000110011 #
#2745
b1000000001000001101010100110011 "
b110000000 $
b1000001101010010110011 #
b100100 !
#2755
b1000001001010110010011 "
b0 $
b101000 !
b1000000001000001101010100110011 #
#2765
b100001101011000010011 "
b1000001001010110010011 #
b101100 !
#2775
b1000000000100001101011010010011 "
b110000 $
b110000 !
b100001101011000010011 #
#2785
b11000001111011100010011 "
b110 $
b1000000000100001101011010010011 #
b110100 !
#2795
b100001110011110010011 "
b111000 !
b11000001111011100010011 #
#2805
b111100001100100000010011 "
b100 $
b100001110011110010011 #
b111100 !
#2815
b1100010110111 "
b1101 $
b1000000 !
b111100001100100000010011 #
#2825
b100000010000000100011 "
b11 $
b1100010110111 #
b1000100 !
#2835
b10100100000011 "
b1000000000000 $
b1001000 !
b100000010000000100011 #
#2845
b100001000010001100011 "
b0 $
b10100100000011 #
b1001100 !
#2855
b110111100000000100110010011 "
b1010000 !
b100001000010001100011 #
#2865
b0 $
b1101111000000000101000010011 "
b110111100000000100110010011 #
b1010100 !
#2875
b0 $
b0 #
#2885
b1000001001010001100011 "
b1101111000000000101000010011 #
b1011000 !
#2895
b10100110100000000101010010011 "
b11011110 $
b1011100 !
b1000001001010001100011 #
#2905
b11011110000000000101100010011 "
b111 $
b10100110100000000101010010011 #
b1100000 !
#2915
b0 $
b0 #
#2925
b100000000000101111101111 "
b11011110000000000101100010011 #
b1100100 !
#2935
b100010101100000000110000010011 "
b110111100 $
b1101000 !
b100000000000101111101111 #
#2945
b110000000 $
b110011100111 "
b100010101100000000110000010011 #
b1101100 !
#2955
b0 $
b0 #
#2965
bx "
b110011100111 #
b1110000 !
#2975
b1110xx0 !
bx #
#2985
b110000000000000010010011 "
b0 #
b0 !
#2995
b10100000000000100010011 "
b100 !
b110000000000000010010011 #
