2_fase_p2/waveform/tb_test_sp_rvc.vcd
$date
   Mon Jun 29 22:17:42 2026
$end

$version
  2024.1
  $dumpfile ("Z:/26-1/ARQUI/proy2/entrega2/2_fase_p2/waveform/tb_test_sp_rvc.vcd") 
$end

$timescale
  1ps
$end

$scope module tb_test_sp_rvc $end
$scope module dut $end
$scope module pipe $end
$var wire 32 ! PCF [31:0] $end
$var wire 32 " InstrF [31:0] $end
$var reg 32 # InstrD [31:0] $end
$var wire 32 % ALUResultE [31:0] $end
$scope module ifs $end
$var wire 1 $ IsCompressedF $end
$upscope $end
$upscope $end
$upscope $end
$upscope $end
$enddefinitions $end

#0
$dumpvars
b0 !
b10101000000010000010011 "
b0 #
1$
b0 %
$end

#25000
b10 !
b1000000010010000000100011 "
b10101000000010000010011 #

#35000
b100 !
b10010010010000011 "
b1000000010010000000100011 #
b101 %

#45000
b110 !
b1000000010010010000100011 "
b10010010010000011 #
b0 %

#55000
b1000 !
b10000010010010100000011 "
b1000000010010010000100011 #

#65000
b1010 !
b11000010010000100000010000011111 "
b10000010010010100000011 #
0$
b1000 %

#75000
b1110 !
b100000010010010110000011 "
b11000010010000100000010000011111 #
1$
b100 %

#85000
b10000 !
b100000010010101000100011 "
b100000010010010110000011 #
b0 %

#95000
b10010 !
b1000000010010011000000011 "
b100000010010101000100011 #
b1000 %

#105000
b10100 !
b10010011010000011 "
b1000000010010011000000011 #
b10100 %

#115000
b10110 !
b1100011 "
b10010011010000011 #
0$
b10000 %

#125000
b11010 !
bx "
b1100011 #
x$
b0 %

#135000
b111x0 !
bx #

#145000
b10110 !
b1100011 "
b0 #
0$

#155000
b11010 !
bx "
b1100011 #
x$

#165000
b111x0 !
bx #

#175000
b10110 !
b1100011 "
b0 #
0$

#185000
b11010 !
bx "
b1100011 #
x$

#195000
b111x0 !
bx #

#205000
b10110 !
b1100011 "
b0 #
0$

#215000
b11010 !
bx "
b1100011 #
x$

#225000
b111x0 !
bx #

#235000
b10110 !
b1100011 "
b0 #
0$

#245000
b11010 !
bx "
b1100011 #
x$

#255000
b111x0 !
bx #

#265000
b10110 !
b1100011 "
b0 #
0$

#275000
b11010 !
bx "
b1100011 #
x$

#285000
b111x0 !
bx #

#295000
b10110 !
b1100011 "
b0 #
0$

#305000
b11010 !
bx "
b1100011 #
x$

#315000
b111x0 !
bx #

#325000
b10110 !
b1100011 "
b0 #
0$

#335000
b11010 !
bx "
b1100011 #
x$

#345000
b111x0 !
bx #

#355000
b10110 !
b1100011 "
b0 #
0$

#365000
b11010 !
bx "
b1100011 #
x$

#375000
b111x0 !
bx #

#385000
b10110 !
b1100011 "
b0 #
0$

#395000
b11010 !
bx "
b1100011 #
x$

#405000
b111x0 !
bx #

#415000
b10110 !
b1100011 "
b0 #
0$

#425000
b11010 !
bx "
b1100011 #
x$

#435000
b111x0 !
bx #

#445000
b10110 !
b1100011 "
b0 #
0$

#455000
b11010 !
bx "
b1100011 #
x$

#465000
b111x0 !
bx #

#475000
b10110 !
b1100011 "
b0 #
0$

#485000
b11010 !
bx "
b1100011 #
x$

#495000
b111x0 !
bx #

#505000
b10110 !
b1100011 "
b0 #
0$

#515000
b11010 !
bx "
b1100011 #
x$

#525000
b111x0 !
bx #

#535000
b10110 !
b1100011 "
b0 #
0$

#545000
b11010 !
bx "
b1100011 #
x$

#555000
b111x0 !
bx #

#565000
b10110 !
b1100011 "
b0 #
0$

#575000
b11010 !
bx "
b1100011 #
x$

#585000
b111x0 !
bx #

#595000
b10110 !
b1100011 "
b0 #
0$

#605000
b11010 !
bx "
b1100011 #
x$

#615000
b111x0 !
bx #

#625000
b10110 !
b1100011 "
b0 #
0$

#635000
b11010 !
bx "
b1100011 #
x$

#645000
b111x0 !
bx #

#655000
b10110 !
b1100011 "
b0 #
0$

#665000
b11010 !
bx "
b1100011 #
x$

#675000
b111x0 !
bx #

#685000
b10110 !
b1100011 "
b0 #
0$

#695000
b11010 !
bx "
b1100011 #
x$

#705000
b111x0 !
bx #

#715000
b10110 !
b1100011 "
b0 #
0$

#725000
b11010 !
bx "
b1100011 #
x$

#735000
b111x0 !
bx #

#745000
b10110 !
b1100011 "
b0 #
0$

#755000
b11010 !
bx "
b1100011 #
x$

#765000
b111x0 !
bx #

#775000
b10110 !
b1100011 "
b0 #
0$

#785000
b11010 !
bx "
b1100011 #
x$

#795000
b111x0 !
bx #

#805000
b10110 !
b1100011 "
b0 #
0$

#815000
b11010 !
bx "
b1100011 #
x$

#825000
b111x0 !
bx #

#835000
b10110 !
b1100011 "
b0 #
0$

#845000
b11010 !
bx "
b1100011 #
x$

#855000
b111x0 !
bx #

#865000
b10110 !
b1100011 "
b0 #
0$

#875000
b11010 !
bx "
b1100011 #
x$

#885000
b111x0 !
bx #

#895000
b10110 !
b1100011 "
b0 #
0$

#905000
b11010 !
bx "
b1100011 #
x$

#915000
b111x0 !
bx #

#925000
b10110 !
b1100011 "
b0 #
0$

#935000
b11010 !
bx "
b1100011 #
x$

#945000
b111x0 !
bx #

#955000
b10110 !
b1100011 "
b0 #
0$

#965000
b11010 !
bx "
b1100011 #
x$

#975000
b111x0 !
bx #

#985000
b10110 !
b1100011 "
b0 #
0$
