2_fase_p2/waveform/tb_test_10_instrucciones.vcd
$date
	Fri Jun 26 00:03:13 2026
$end
$version
	Icarus Verilog
$end
$timescale
	1s
$end
$scope module tb_test_10_instrucciones $end
$scope module dut $end
$scope module pipe $end
$var wire 32 ! PCF [31:0] $end
$upscope $end
$upscope $end
$upscope $end
$scope module tb_test_10_instrucciones $end
$scope module dut $end
$scope module pipe $end
$var wire 32 " InstrF [31:0] $end
$upscope $end
$upscope $end
$upscope $end
$scope module tb_test_10_instrucciones $end
$scope module dut $end
$scope module pipe $end
$var reg 32 # InstrD [31:0] $end
$upscope $end
$upscope $end
$upscope $end
$scope module tb_test_10_instrucciones $end
$scope module dut $end
$scope module pipe $end
$scope module ifs $end
$var wire 1 $ IsCompressedF $end
$upscope $end
$upscope $end
$upscope $end
$upscope $end
$scope module tb_test_10_instrucciones $end
$scope module dut $end
$scope module pipe $end
$var wire 32 % ALUResultE [31:0] $end
$upscope $end
$upscope $end
$upscope $end
$enddefinitions $end
$comment Show the parameter values. $end
$dumpall
$end
#0
$dumpvars
b0 %
0$
b0 #
b101000000000010000010011 "
b0 !
$end
#25
b1100000000010010010011 "
b101000000000010000010011 #
b100 !
#35
1$
b1101000000010000010011 "
b1010 %
b1000 !
b1100000000010010010011 #
#45
b100001001000010010110011 "
b11 %
b1101000000010000010011 #
b1010 !
#55
b1101 %
b1010000000000010100010011 "
0$
b1100 !
b100001001000010010110011 #
#65
b10000 %
b11100000000010110010011 "
b1010000000000010100010011 #
b10000 !
#75
1$
b1000000101101010000010100110011 "
b10100 %
b10100 !
b11100000000010110010011 #
#85
b101101010111010100110011 "
b111 %
b1000000101101010000010100110011 #
b10110 !
#95
b110000000000011000010011 "
0$
b1101 %
b11000 !
b101101010111010100110011 #
#105
b101000000000011010010011 "
b101 %
b110000000000011000010011 #
b11100 !
#115
1$
b110101100110011000110011 "
b1100 %
b100000 !
b101000000000011010010011 #
#125
b110101100100011000110011 "
b1010 %
b110101100110011000110011 #
b100010 !
#135
b100000000000011100010011 "
0$
b1110 %
b100100 !
b110101100100011000110011 #
#145
1$
b1001110001011100010011 "
b100 %
b100000000000011100010011 #
b101000 !
#155
b1101110101011100010011 "
b1000 %
b101010 !
b1001110001011100010011 #
#165
b1000000000101110101011100010011 "
b100000 %
b1101110101011100010011 #
b101100 !
#175
b10011110110111 "
b100 %
b101110 !
b1000000000101110101011100010011 #
#185
b1100011 "
0$
b10 %
b10011110110111 #
b110000 !
#195
x$
bx "
b10000000000000 %
b110100 !
b1100011 #
#205
b0 %
bx #
b11xxx0 !
#215
0$
b1100011 "
b110000 !
b0 #
#225
x$
bx "
b1100011 #
b110100 !
#235
b11xxx0 !
bx #
#245
0$
b1100011 "
b0 #
b110000 !
#255
x$
bx "
b110100 !
b1100011 #
#265
bx #
b11xxx0 !
#275
0$
b1100011 "
b110000 !
b0 #
#285
x$
bx "
b1100011 #
b110100 !
#295
b11xxx0 !
bx #
#305
0$
b1100011 "
b0 #
b110000 !
#315
x$
bx "
b110100 !
b1100011 #
#325
bx #
b11xxx0 !
#335
0$
b1100011 "
b110000 !
b0 #
#345
x$
bx "
b1100011 #
b110100 !
#355
b11xxx0 !
bx #
#365
0$
b1100011 "
b0 #
b110000 !
#375
x$
bx "
b110100 !
b1100011 #
#385
bx #
b11xxx0 !
#395
0$
b1100011 "
b110000 !
b0 #
#405
x$
bx "
b1100011 #
b110100 !
#415
b11xxx0 !
bx #
#425
0$
b1100011 "
b0 #
b110000 !
#435
x$
bx "
b110100 !
b1100011 #
#445
bx #
b11xxx0 !
#455
0$
b1100011 "
b110000 !
b0 #
#465
x$
bx "
b1100011 #
b110100 !
#475
b11xxx0 !
bx #
#485
0$
b1100011 "
b0 #
b110000 !
#495
x$
bx "
b110100 !
b1100011 #
#505
bx #
b11xxx0 !
#515
0$
b1100011 "
b110000 !
b0 #
#525
x$
bx "
b1100011 #
b110100 !
#535
b11xxx0 !
bx #
#545
0$
b1100011 "
b0 #
b110000 !
#555
x$
bx "
b110100 !
b1100011 #
#565
bx #
b11xxx0 !
#575
0$
b1100011 "
b110000 !
b0 #
#585
x$
bx "
b1100011 #
b110100 !
#595
b11xxx0 !
bx #
#605
0$
b1100011 "
b0 #
b110000 !
#615
x$
bx "
b110100 !
b1100011 #
#625
bx #
b11xxx0 !
#635
0$
b1100011 "
b110000 !
b0 #
#645
x$
bx "
b1100011 #
b110100 !
#655
b11xxx0 !
bx #
#665
0$
b1100011 "
b0 #
b110000 !
#675
x$
bx "
b110100 !
b1100011 #
#685
bx #
b11xxx0 !
#695
0$
b1100011 "
b110000 !
b0 #
#705
x$
bx "
b1100011 #
b110100 !
#715
b11xxx0 !
bx #
#725
0$
b1100011 "
b0 #
b110000 !
#735
x$
bx "
b110100 !
b1100011 #
#745
bx #
b11xxx0 !
#755
0$
b1100011 "
b110000 !
b0 #
#765
x$
bx "
b1100011 #
b110100 !
#775
b11xxx0 !
bx #
#785
0$
b1100011 "
b0 #
b110000 !
#795
x$
bx "
b110100 !
b1100011 #
#805
bx #
b11xxx0 !
#815
0$
b1100011 "
b110000 !
b0 #
#825
x$
bx "
b1100011 #
b110100 !
#835
b11xxx0 !
bx #
#845
0$
b1100011 "
b0 #
b110000 !
#855
x$
bx "
b110100 !
b1100011 #
#865
bx #
b11xxx0 !
#875
0$
b1100011 "
b110000 !
b0 #
#885
x$
bx "
b1100011 #
b110100 !
#895
b11xxx0 !
bx #
#905
0$
b1100011 "
b0 #
b110000 !
#915
x$
bx "
b110100 !
b1100011 #
#925
bx #
b11xxx0 !
#935
0$
b1100011 "
b110000 !
b0 #
#945
x$
bx "
b1100011 #
b110100 !
#955
b11xxx0 !
bx #
#965
0$
b1100011 "
b0 #
b110000 !
#975
x$
bx "
b110100 !
b1100011 #
#985
bx #
b11xxx0 !
#995
0$
b1100011 "
b110000 !
b0 #
#1005
x$
bx "
b1100011 #
b110100 !
#1015
b11xxx0 !
bx #
#1025
0$
b1100011 "
b0 #
b110000 !
#1035
x$
bx "
b110100 !
b1100011 #
#1045
bx #
b11xxx0 !
#1055
0$
b1100011 "
b110000 !
b0 #
#1065
x$
bx "
b1100011 #
b110100 !
#1075
b11xxx0 !
bx #
#1085
0$
b1100011 "
b0 #
b110000 !
#1095
x$
bx "
b110100 !
b1100011 #
#1105
bx #
b11xxx0 !
#1115
0$
b1100011 "
b110000 !
b0 #
#1125
x$
bx "
b1100011 #
b110100 !
#1135
b11xxx0 !
bx #
#1145
0$
b1100011 "
b0 #
b110000 !
#1155
x$
bx "
b110100 !
b1100011 #
#1165
bx #
b11xxx0 !
#1175
0$
b1100011 "
b110000 !
b0 #
#1185
x$
bx "
b1100011 #
b110100 !
#1195
b11xxx0 !
bx #
#1205
0$
b1100011 "
b0 #
b110000 !
#1215
x$
bx "
b110100 !
b1100011 #
#1225
bx #
b11xxx0 !
#1235
0$
b1100011 "
b110000 !
b0 #
#1245
x$
bx "
b1100011 #
b110100 !
#1255
b11xxx0 !
bx #
#1265
0$
b1100011 "
b0 #
b110000 !
#1275
x$
bx "
b110100 !
b1100011 #
#1285
bx #
b11xxx0 !
#1295
0$
b1100011 "
b110000 !
b0 #
#1305
x$
bx "
b1100011 #
b110100 !
#1315
b11xxx0 !
bx #
#1325
0$
b1100011 "
b0 #
b110000 !
#1335
x$
bx "
b110100 !
b1100011 #
#1345
bx #
b11xxx0 !
#1355
0$
b1100011 "
b110000 !
b0 #
#1365
x$
bx "
b1100011 #
b110100 !
#1375
b11xxx0 !
bx #
#1385
0$
b1100011 "
b0 #
b110000 !
#1395
x$
bx "
b110100 !
b1100011 #
#1405
bx #
b11xxx0 !
#1415
0$
b1100011 "
b110000 !
b0 #
#1425
x$
bx "
b1100011 #
b110100 !
#1435
b11xxx0 !
bx #
#1445
0$
b1100011 "
b0 #
b110000 !
#1455
x$
bx "
b110100 !
b1100011 #
#1465
bx #
b11xxx0 !
#1475
0$
b1100011 "
b110000 !
b0 #
#1485
x$
bx "
b1100011 #
b110100 !
#1495
b11xxx0 !
bx #
