2_fase_p2/waveform/tb_test_clw_csw.vcd
$date
   Mon Jun 29 20:24:09 2026
$end

$version
  2024.1
  $dumpfile ("Z:/26-1/ARQUI/proy2/entrega2/2_fase_p2/waveform/tb_test_clw_csw.vcd") 
$end

$timescale
  1ps
$end

$scope module tb_test_clw_csw $end
$scope module dut $end
$scope module pipe $end
$var wire 32 ! PCF [31:0] $end
$var wire 32 " InstrF [31:0] $end
$var reg 32 # InstrD [31:0] $end
$var wire 32 % ALUResultE [31:0] $end
$scope module ifs $end
$var wire 1 $ IsCompressedF $end
$upscope $end
$upscope $end
$upscope $end
$upscope $end
$enddefinitions $end

#0
$dumpvars
b0 !
b101001001000010010010011 "
b0 #
1$
b0 %
$end

#25000
b10 !
b100101000010000000100011 "
b101001001000010010010011 #

#35000
b100 !
b1000010010100000011 "
b100101000010000000100011 #
b1010 %

#45000
b110 !
b100101000010010000100011 "
b1000010010100000011 #
b0 %

#55000
b1000 !
b100001000010010110000011 "
b100101000010010000100011 #

#65000
b1010 !
b111101001000010010010011 "
b100001000010010110000011 #
b1000 %

#75000
b1100 !
b100100101000010100000100011 "
b111101001000010010010011 #

#85000
b1110 !
b101000001000010011000000011 "
b100100101000010100000100011 #
b11001 %

#95000
b10000 !
b1000010011010000011 "
b101000001000010011000000011 #
b1010000 %

#105000
b10010 !
b1100011 "
b1000010011010000011 #
0$

#115000
b10110 !
bx "
b1100011 #
x$
b0 %

#125000
b110x0 !
bx #

#135000
b10010 !
b1100011 "
b0 #
0$

#145000
b10110 !
bx "
b1100011 #
x$

#155000
b110x0 !
bx #

#165000
b10010 !
b1100011 "
b0 #
0$

#175000
b10110 !
bx "
b1100011 #
x$

#185000
b110x0 !
bx #

#195000
b10010 !
b1100011 "
b0 #
0$

#205000
b10110 !
bx "
b1100011 #
x$

#215000
b110x0 !
bx #

#225000
b10010 !
b1100011 "
b0 #
0$

#235000
b10110 !
bx "
b1100011 #
x$

#245000
b110x0 !
bx #

#255000
b10010 !
b1100011 "
b0 #
0$

#265000
b10110 !
bx "
b1100011 #
x$

#275000
b110x0 !
bx #

#285000
b10010 !
b1100011 "
b0 #
0$

#295000
b10110 !
bx "
b1100011 #
x$

#305000
b110x0 !
bx #

#315000
b10010 !
b1100011 "
b0 #
0$

#325000
b10110 !
bx "
b1100011 #
x$

#335000
b110x0 !
bx #

#345000
b10010 !
b1100011 "
b0 #
0$

#355000
b10110 !
bx "
b1100011 #
x$

#365000
b110x0 !
bx #

#375000
b10010 !
b1100011 "
b0 #
0$

#385000
b10110 !
bx "
b1100011 #
x$

#395000
b110x0 !
bx #

#405000
b10010 !
b1100011 "
b0 #
0$

#415000
b10110 !
bx "
b1100011 #
x$

#425000
b110x0 !
bx #

#435000
b10010 !
b1100011 "
b0 #
0$

#445000
b10110 !
bx "
b1100011 #
x$

#455000
b110x0 !
bx #

#465000
b10010 !
b1100011 "
b0 #
0$

#475000
b10110 !
bx "
b1100011 #
x$

#485000
b110x0 !
bx #

#495000
b10010 !
b1100011 "
b0 #
0$

#505000
b10110 !
bx "
b1100011 #
x$

#515000
b110x0 !
bx #

#525000
b10010 !
b1100011 "
b0 #
0$

#535000
b10110 !
bx "
b1100011 #
x$

#545000
b110x0 !
bx #

#555000
b10010 !
b1100011 "
b0 #
0$

#565000
b10110 !
bx "
b1100011 #
x$

#575000
b110x0 !
bx #

#585000
b10010 !
b1100011 "
b0 #
0$

#595000
b10110 !
bx "
b1100011 #
x$

#605000
b110x0 !
bx #

#615000
b10010 !
b1100011 "
b0 #
0$

#625000
b10110 !
bx "
b1100011 #
x$

#635000
b110x0 !
bx #

#645000
b10010 !
b1100011 "
b0 #
0$

#655000
b10110 !
bx "
b1100011 #
x$

#665000
b110x0 !
bx #

#675000
b10010 !
b1100011 "
b0 #
0$

#685000
b10110 !
bx "
b1100011 #
x$

#695000
b110x0 !
bx #

#705000
b10010 !
b1100011 "
b0 #
0$

#715000
b10110 !
bx "
b1100011 #
x$

#725000
b110x0 !
bx #

#735000
b10010 !
b1100011 "
b0 #
0$

#745000
b10110 !
bx "
b1100011 #
x$

#755000
b110x0 !
bx #

#765000
b10010 !
b1100011 "
b0 #
0$

#775000
b10110 !
bx "
b1100011 #
x$

#785000
b110x0 !
bx #

#795000
b10010 !
b1100011 "
b0 #
0$

#805000
b10110 !
bx "
b1100011 #
x$

#815000
b110x0 !
bx #

#825000
b10010 !
b1100011 "
b0 #
0$

#835000
b10110 !
bx "
b1100011 #
x$

#845000
b110x0 !
bx #

#855000
b10010 !
b1100011 "
b0 #
0$

#865000
b10110 !
bx "
b1100011 #
x$

#875000
b110x0 !
bx #

#885000
b10010 !
b1100011 "
b0 #
0$

#895000
b10110 !
bx "
b1100011 #
x$

#905000
b110x0 !
bx #

#915000
b10010 !
b1100011 "
b0 #
0$

#925000
b10110 !
bx "
b1100011 #
x$

#935000
b110x0 !
bx #

#945000
b10010 !
b1100011 "
b0 #
0$

#955000
b10110 !
bx "
b1100011 #
x$

#965000
b110x0 !
bx #

#975000
b10010 !
b1100011 "
b0 #
0$

#985000
b10110 !
bx "
b1100011 #
x$

#995000
b110x0 !
bx #
